[15:22:21] task [xgboost.dask]:tcp://127.0.0.1:33439 got new rank 0
[15:22:23] task [xgboost.dask]:tcp://127.0.0.1:33439 got new rank 0
[15:22:24] task [xgboost.dask]:tcp://127.0.0.1:33439 got new rank 0
[15:22:26] task [xgboost.dask]:tcp://127.0.0.1:33439 got new rank 0
[15:22:27] task [xgboost.dask]:tcp://127.0.0.1:33439 got new rank 0
[15:22:28] task [xgboost.dask]:tcp://127.0.0.1:33439 got new rank 0
[15:22:29] task [xgboost.dask]:tcp://127.0.0.1:33439 got new rank 0
[15:22:31] task [xgboost.dask]:tcp://127.0.0.1:33439 got new rank 0
[15:22:32] task [xgboost.dask]:tcp://127.0.0.1:33439 got new rank 0
[15:22:33] task [xgboost.dask]:tcp://127.0.0.1:33439 got new rank 0
[15:22:35] task [xgboost.dask]:tcp://127.0.0.1:33439 got new rank 0
[15:22:36] task [xgboost.dask]:tcp://127.0.0.1:33439 got new rank 0
[15:22:37] task [xgboost.dask]:tcp://127.0.0.1:33439 got new rank 0
[15:22:38] task [xgboost.dask]:tcp://127.0.0.1:33439 got new rank 0
[15:22:40] task [xgboost.dask]:tcp://127.0.0.1:33439 got new rank 0
[15:22:41] task [xgboost.dask]:tcp://127.0.0.1:33439 got new rank 0
[15:22:42] task [xgboost.dask]:tcp://127.0.0.1:33439 got new rank 0
[15:22:43] task [xgboost.dask]:tcp://127.0.0.1:33439 got new rank 0
[15:22:45] task [xgboost.dask]:tcp://127.0.0.1:33439 got new rank 0
[15:22:46] task [xgboost.dask]:tcp://127.0.0.1:33439 got new rank 0
[15:22:47] task [xgboost.dask]:tcp://127.0.0.1:33439 got new rank 0
[15:22:49] task [xgboost.dask]:tcp://127.0.0.1:33439 got new rank 0
[15:22:50] task [xgboost.dask]:tcp://127.0.0.1:33439 got new rank 0
[15:22:51] task [xgboost.dask]:tcp://127.0.0.1:33439 got new rank 0
[15:22:52] task [xgboost.dask]:tcp://127.0.0.1:33439 got new rank 0
[15:22:54] task [xgboost.dask]:tcp://127.0.0.1:33439 got new rank 0
[15:22:55] task [xgboost.dask]:tcp://127.0.0.1:33439 got new rank 0
[15:22:56] task [xgboost.dask]:tcp://127.0.0.1:33439 got new rank 0
[15:22:57] task [xgboost.dask]:tcp://127.0.0.1:33439 got new rank 0
[15:22:59] task [xgboost.dask]:tcp://127.0.0.1:33439 got new rank 0
[15:23:00] task [xgboost.dask]:tcp://127.0.0.1:33439 got new rank 0
[15:23:01] task [xgboost.dask]:tcp://127.0.0.1:33439 got new rank 0
[15:23:02] task [xgboost.dask]:tcp://127.0.0.1:33439 got new rank 0
[15:23:04] task [xgboost.dask]:tcp://127.0.0.1:33439 got new rank 0
[15:23:05] task [xgboost.dask]:tcp://127.0.0.1:33439 got new rank 0
[15:23:06] task [xgboost.dask]:tcp://127.0.0.1:33439 got new rank 0
[15:23:07] task [xgboost.dask]:tcp://127.0.0.1:33439 got new rank 0
[15:23:09] task [xgboost.dask]:tcp://127.0.0.1:33439 got new rank 0
[15:23:10] task [xgboost.dask]:tcp://127.0.0.1:33439 got new rank 0
[15:23:11] task [xgboost.dask]:tcp://127.0.0.1:33439 got new rank 0
[15:23:12] task [xgboost.dask]:tcp://127.0.0.1:33439 got new rank 0
[15:23:14] task [xgboost.dask]:tcp://127.0.0.1:33439 got new rank 0
[15:23:15] task [xgboost.dask]:tcp://127.0.0.1:33439 got new rank 0
[15:23:16] task [xgboost.dask]:tcp://127.0.0.1:33439 got new rank 0
[15:23:17] task [xgboost.dask]:tcp://127.0.0.1:33439 got new rank 0
[15:23:19] task [xgboost.dask]:tcp://127.0.0.1:33439 got new rank 0
[15:23:20] task [xgboost.dask]:tcp://127.0.0.1:33439 got new rank 0
[15:23:21] task [xgboost.dask]:tcp://127.0.0.1:33439 got new rank 0
[15:23:23] task [xgboost.dask]:tcp://127.0.0.1:33439 got new rank 0
[15:23:24] task [xgboost.dask]:tcp://127.0.0.1:33439 got new rank 0
[15:23:25] task [xgboost.dask]:tcp://127.0.0.1:33439 got new rank 0
[15:23:26] task [xgboost.dask]:tcp://127.0.0.1:33439 got new rank 0
[15:23:28] task [xgboost.dask]:tcp://127.0.0.1:33439 got new rank 0
[15:23:29] task [xgboost.dask]:tcp://127.0.0.1:33439 got new rank 0
[15:23:30] task [xgboost.dask]:tcp://127.0.0.1:33439 got new rank 0
[15:23:31] task [xgboost.dask]:tcp://127.0.0.1:33439 got new rank 0
[15:23:33] task [xgboost.dask]:tcp://127.0.0.1:33439 got new rank 0
[15:23:34] task [xgboost.dask]:tcp://127.0.0.1:33439 got new rank 0
[15:23:35] task [xgboost.dask]:tcp://127.0.0.1:33439 got new rank 0
[15:23:37] task [xgboost.dask]:tcp://127.0.0.1:33439 got new rank 0
[15:23:38] task [xgboost.dask]:tcp://127.0.0.1:33439 got new rank 0
[15:23:39] task [xgboost.dask]:tcp://127.0.0.1:33439 got new rank 0
[15:23:40] task [xgboost.dask]:tcp://127.0.0.1:33439 got new rank 0
[15:23:41] task [xgboost.dask]:tcp://127.0.0.1:33439 got new rank 0
[15:23:43] task [xgboost.dask]:tcp://127.0.0.1:33439 got new rank 0
[15:23:44] task [xgboost.dask]:tcp://127.0.0.1:33439 got new rank 0
[15:23:45] task [xgboost.dask]:tcp://127.0.0.1:33439 got new rank 0
[15:23:47] task [xgboost.dask]:tcp://127.0.0.1:33439 got new rank 0
[15:23:48] task [xgboost.dask]:tcp://127.0.0.1:33439 got new rank 0
[15:23:49] task [xgboost.dask]:tcp://127.0.0.1:33439 got new rank 0
[15:23:50] task [xgboost.dask]:tcp://127.0.0.1:33439 got new rank 0
[15:23:52] task [xgboost.dask]:tcp://127.0.0.1:33439 got new rank 0
[15:23:53] task [xgboost.dask]:tcp://127.0.0.1:33439 got new rank 0
[15:23:54] task [xgboost.dask]:tcp://127.0.0.1:33439 got new rank 0
[15:23:55] task [xgboost.dask]:tcp://127.0.0.1:33439 got new rank 0
[15:23:57] task [xgboost.dask]:tcp://127.0.0.1:33439 got new rank 0
[15:23:58] task [xgboost.dask]:tcp://127.0.0.1:33439 got new rank 0
[15:23:59] task [xgboost.dask]:tcp://127.0.0.1:33439 got new rank 0
[15:24:00] task [xgboost.dask]:tcp://127.0.0.1:33439 got new rank 0
[15:24:02] task [xgboost.dask]:tcp://127.0.0.1:33439 got new rank 0
[15:24:03] task [xgboost.dask]:tcp://127.0.0.1:33439 got new rank 0
[15:24:04] task [xgboost.dask]:tcp://127.0.0.1:33439 got new rank 0
[15:24:06] task [xgboost.dask]:tcp://127.0.0.1:33439 got new rank 0
[15:24:07] task [xgboost.dask]:tcp://127.0.0.1:33439 got new rank 0
[15:24:08] task [xgboost.dask]:tcp://127.0.0.1:33439 got new rank 0
[15:24:09] task [xgboost.dask]:tcp://127.0.0.1:33439 got new rank 0
[15:24:10] task [xgboost.dask]:tcp://127.0.0.1:33439 got new rank 0
[15:24:12] task [xgboost.dask]:tcp://127.0.0.1:33439 got new rank 0
[15:24:13] task [xgboost.dask]:tcp://127.0.0.1:33439 got new rank 0
[15:24:14] task [xgboost.dask]:tcp://127.0.0.1:33439 got new rank 0
[15:24:16] task [xgboost.dask]:tcp://127.0.0.1:33439 got new rank 0
[15:24:17] task [xgboost.dask]:tcp://127.0.0.1:33439 got new rank 0
[15:24:18] task [xgboost.dask]:tcp://127.0.0.1:33439 got new rank 0
[15:24:20] task [xgboost.dask]:tcp://127.0.0.1:33439 got new rank 0
[15:24:21] task [xgboost.dask]:tcp://127.0.0.1:33439 got new rank 0
[15:24:22] task [xgboost.dask]:tcp://127.0.0.1:33439 got new rank 0
[15:24:23] task [xgboost.dask]:tcp://127.0.0.1:33439 got new rank 0
[15:24:25] task [xgboost.dask]:tcp://127.0.0.1:33439 got new rank 0
[15:24:26] task [xgboost.dask]:tcp://127.0.0.1:33439 got new rank 0
[15:24:27] task [xgboost.dask]:tcp://127.0.0.1:33439 got new rank 0
[15:24:28] task [xgboost.dask]:tcp://127.0.0.1:33439 got new rank 0
[15:24:30] task [xgboost.dask]:tcp://127.0.0.1:33439 got new rank 0
[15:24:31] task [xgboost.dask]:tcp://127.0.0.1:33439 got new rank 0
[15:24:32] task [xgboost.dask]:tcp://127.0.0.1:33439 got new rank 0
[15:24:33] task [xgboost.dask]:tcp://127.0.0.1:33439 got new rank 0
[15:24:35] task [xgboost.dask]:tcp://127.0.0.1:33439 got new rank 0
[15:24:36] task [xgboost.dask]:tcp://127.0.0.1:33439 got new rank 0
[15:24:37] task [xgboost.dask]:tcp://127.0.0.1:33439 got new rank 0
[15:24:39] task [xgboost.dask]:tcp://127.0.0.1:33439 got new rank 0
[15:24:40] task [xgboost.dask]:tcp://127.0.0.1:33439 got new rank 0
[15:24:41] task [xgboost.dask]:tcp://127.0.0.1:33439 got new rank 0
[15:24:42] task [xgboost.dask]:tcp://127.0.0.1:33439 got new rank 0
[15:24:44] task [xgboost.dask]:tcp://127.0.0.1:33439 got new rank 0
[15:24:45] task [xgboost.dask]:tcp://127.0.0.1:33439 got new rank 0
[15:24:46] task [xgboost.dask]:tcp://127.0.0.1:33439 got new rank 0
[15:24:48] task [xgboost.dask]:tcp://127.0.0.1:33439 got new rank 0
[15:24:49] task [xgboost.dask]:tcp://127.0.0.1:33439 got new rank 0
[15:24:50] task [xgboost.dask]:tcp://127.0.0.1:33439 got new rank 0
[15:24:51] task [xgboost.dask]:tcp://127.0.0.1:33439 got new rank 0
[15:24:52] task [xgboost.dask]:tcp://127.0.0.1:33439 got new rank 0
[15:24:54] task [xgboost.dask]:tcp://127.0.0.1:33439 got new rank 0
[15:24:55] task [xgboost.dask]:tcp://127.0.0.1:33439 got new rank 0
[15:24:57] task [xgboost.dask]:tcp://127.0.0.1:33439 got new rank 0
[15:24:58] task [xgboost.dask]:tcp://127.0.0.1:33439 got new rank 0
[15:24:59] task [xgboost.dask]:tcp://127.0.0.1:33439 got new rank 0
[15:25:00] task [xgboost.dask]:tcp://127.0.0.1:33439 got new rank 0
[15:25:01] task [xgboost.dask]:tcp://127.0.0.1:33439 got new rank 0
[15:25:03] task [xgboost.dask]:tcp://127.0.0.1:33439 got new rank 0
[15:25:04] task [xgboost.dask]:tcp://127.0.0.1:33439 got new rank 0
[15:25:05] task [xgboost.dask]:tcp://127.0.0.1:33439 got new rank 0
[15:25:07] task [xgboost.dask]:tcp://127.0.0.1:33439 got new rank 0
[15:25:08] task [xgboost.dask]:tcp://127.0.0.1:33439 got new rank 0
[15:25:09] task [xgboost.dask]:tcp://127.0.0.1:33439 got new rank 0
[15:25:10] task [xgboost.dask]:tcp://127.0.0.1:33439 got new rank 0
[15:25:12] task [xgboost.dask]:tcp://127.0.0.1:33439 got new rank 0
[15:25:13] task [xgboost.dask]:tcp://127.0.0.1:33439 got new rank 0
[15:25:14] task [xgboost.dask]:tcp://127.0.0.1:33439 got new rank 0
[15:25:16] task [xgboost.dask]:tcp://127.0.0.1:33439 got new rank 0
[15:25:17] task [xgboost.dask]:tcp://127.0.0.1:33439 got new rank 0
[15:25:18] task [xgboost.dask]:tcp://127.0.0.1:33439 got new rank 0
[15:25:19] task [xgboost.dask]:tcp://127.0.0.1:33439 got new rank 0
[15:25:21] task [xgboost.dask]:tcp://127.0.0.1:33439 got new rank 0
[15:25:22] task [xgboost.dask]:tcp://127.0.0.1:33439 got new rank 0
[15:25:23] task [xgboost.dask]:tcp://127.0.0.1:33439 got new rank 0
[15:25:24] task [xgboost.dask]:tcp://127.0.0.1:33439 got new rank 0
[15:25:26] task [xgboost.dask]:tcp://127.0.0.1:33439 got new rank 0
[15:25:27] task [xgboost.dask]:tcp://127.0.0.1:33439 got new rank 0
[15:25:28] task [xgboost.dask]:tcp://127.0.0.1:33439 got new rank 0
[15:25:29] task [xgboost.dask]:tcp://127.0.0.1:33439 got new rank 0
[15:25:31] task [xgboost.dask]:tcp://127.0.0.1:33439 got new rank 0
[15:25:32] task [xgboost.dask]:tcp://127.0.0.1:33439 got new rank 0
[15:25:33] task [xgboost.dask]:tcp://127.0.0.1:33439 got new rank 0
[15:25:34] task [xgboost.dask]:tcp://127.0.0.1:33439 got new rank 0
[15:25:36] task [xgboost.dask]:tcp://127.0.0.1:33439 got new rank 0
[15:25:37] task [xgboost.dask]:tcp://127.0.0.1:33439 got new rank 0
[15:25:38] task [xgboost.dask]:tcp://127.0.0.1:33439 got new rank 0
[15:25:40] task [xgboost.dask]:tcp://127.0.0.1:33439 got new rank 0
[15:25:41] task [xgboost.dask]:tcp://127.0.0.1:33439 got new rank 0
[15:25:42] task [xgboost.dask]:tcp://127.0.0.1:33439 got new rank 0
[15:25:43] task [xgboost.dask]:tcp://127.0.0.1:33439 got new rank 0
[15:25:44] task [xgboost.dask]:tcp://127.0.0.1:33439 got new rank 0
[15:25:46] task [xgboost.dask]:tcp://127.0.0.1:33439 got new rank 0
[15:25:47] task [xgboost.dask]:tcp://127.0.0.1:33439 got new rank 0
[15:25:48] task [xgboost.dask]:tcp://127.0.0.1:33439 got new rank 0
[15:25:50] task [xgboost.dask]:tcp://127.0.0.1:33439 got new rank 0
[15:25:51] task [xgboost.dask]:tcp://127.0.0.1:33439 got new rank 0
[15:25:52] task [xgboost.dask]:tcp://127.0.0.1:33439 got new rank 0
[15:25:53] task [xgboost.dask]:tcp://127.0.0.1:33439 got new rank 0
[15:25:55] task [xgboost.dask]:tcp://127.0.0.1:33439 got new rank 0
[15:25:56] task [xgboost.dask]:tcp://127.0.0.1:33439 got new rank 0
[15:25:57] task [xgboost.dask]:tcp://127.0.0.1:33439 got new rank 0
[15:25:59] task [xgboost.dask]:tcp://127.0.0.1:33439 got new rank 0
[15:26:00] task [xgboost.dask]:tcp://127.0.0.1:33439 got new rank 0
[15:26:01] task [xgboost.dask]:tcp://127.0.0.1:33439 got new rank 0
[15:26:02] task [xgboost.dask]:tcp://127.0.0.1:33439 got new rank 0
[15:26:04] task [xgboost.dask]:tcp://127.0.0.1:33439 got new rank 0
[15:26:05] task [xgboost.dask]:tcp://127.0.0.1:33439 got new rank 0
[15:26:06] task [xgboost.dask]:tcp://127.0.0.1:33439 got new rank 0
[15:26:07] task [xgboost.dask]:tcp://127.0.0.1:33439 got new rank 0
[15:26:09] task [xgboost.dask]:tcp://127.0.0.1:33439 got new rank 0
[15:26:10] task [xgboost.dask]:tcp://127.0.0.1:33439 got new rank 0
[15:26:11] task [xgboost.dask]:tcp://127.0.0.1:33439 got new rank 0
[15:26:12] task [xgboost.dask]:tcp://127.0.0.1:33439 got new rank 0
[15:26:14] task [xgboost.dask]:tcp://127.0.0.1:33439 got new rank 0
[15:26:15] task [xgboost.dask]:tcp://127.0.0.1:33439 got new rank 0
[15:26:16] task [xgboost.dask]:tcp://127.0.0.1:33439 got new rank 0
[15:26:17] task [xgboost.dask]:tcp://127.0.0.1:33439 got new rank 0
[15:26:19] task [xgboost.dask]:tcp://127.0.0.1:33439 got new rank 0
[15:26:20] task [xgboost.dask]:tcp://127.0.0.1:33439 got new rank 0
[15:26:21] task [xgboost.dask]:tcp://127.0.0.1:33439 got new rank 0
[15:26:23] task [xgboost.dask]:tcp://127.0.0.1:33439 got new rank 0
[15:26:24] task [xgboost.dask]:tcp://127.0.0.1:33439 got new rank 0
[15:26:25] task [xgboost.dask]:tcp://127.0.0.1:33439 got new rank 0
[15:26:26] task [xgboost.dask]:tcp://127.0.0.1:33439 got new rank 0
[15:26:28] task [xgboost.dask]:tcp://127.0.0.1:33439 got new rank 0
[15:26:29] task [xgboost.dask]:tcp://127.0.0.1:33439 got new rank 0
[15:26:30] task [xgboost.dask]:tcp://127.0.0.1:33439 got new rank 0
[15:26:31] task [xgboost.dask]:tcp://127.0.0.1:33439 got new rank 0
[15:26:33] task [xgboost.dask]:tcp://127.0.0.1:33439 got new rank 0
[15:26:34] task [xgboost.dask]:tcp://127.0.0.1:33439 got new rank 0
[15:26:35] task [xgboost.dask]:tcp://127.0.0.1:33439 got new rank 0
[15:26:37] task [xgboost.dask]:tcp://127.0.0.1:33439 got new rank 0
[15:26:38] task [xgboost.dask]:tcp://127.0.0.1:33439 got new rank 0
[15:26:39] task [xgboost.dask]:tcp://127.0.0.1:33439 got new rank 0
[15:26:40] task [xgboost.dask]:tcp://127.0.0.1:33439 got new rank 0
[15:26:41] task [xgboost.dask]:tcp://127.0.0.1:33439 got new rank 0
[15:26:43] task [xgboost.dask]:tcp://127.0.0.1:33439 got new rank 0
[15:26:44] task [xgboost.dask]:tcp://127.0.0.1:33439 got new rank 0
[15:26:46] task [xgboost.dask]:tcp://127.0.0.1:33439 got new rank 0
[15:26:47] task [xgboost.dask]:tcp://127.0.0.1:33439 got new rank 0
[15:26:48] task [xgboost.dask]:tcp://127.0.0.1:33439 got new rank 0
[15:26:49] task [xgboost.dask]:tcp://127.0.0.1:33439 got new rank 0
[15:26:51] task [xgboost.dask]:tcp://127.0.0.1:33439 got new rank 0
[15:26:52] task [xgboost.dask]:tcp://127.0.0.1:33439 got new rank 0
[15:26:53] task [xgboost.dask]:tcp://127.0.0.1:33439 got new rank 0
[15:26:54] task [xgboost.dask]:tcp://127.0.0.1:33439 got new rank 0
[15:26:56] task [xgboost.dask]:tcp://127.0.0.1:33439 got new rank 0
[15:26:57] task [xgboost.dask]:tcp://127.0.0.1:33439 got new rank 0
[15:26:58] task [xgboost.dask]:tcp://127.0.0.1:33439 got new rank 0
[15:26:59] task [xgboost.dask]:tcp://127.0.0.1:33439 got new rank 0
[15:27:01] task [xgboost.dask]:tcp://127.0.0.1:33439 got new rank 0
[15:27:02] task [xgboost.dask]:tcp://127.0.0.1:33439 got new rank 0
[15:27:03] task [xgboost.dask]:tcp://127.0.0.1:33439 got new rank 0
[15:27:04] task [xgboost.dask]:tcp://127.0.0.1:33439 got new rank 0
[15:27:06] task [xgboost.dask]:tcp://127.0.0.1:33439 got new rank 0
[15:27:07] task [xgboost.dask]:tcp://127.0.0.1:33439 got new rank 0
[15:27:08] task [xgboost.dask]:tcp://127.0.0.1:33439 got new rank 0
[15:27:10] task [xgboost.dask]:tcp://127.0.0.1:33439 got new rank 0
[15:27:11] task [xgboost.dask]:tcp://127.0.0.1:33439 got new rank 0
[15:27:12] task [xgboost.dask]:tcp://127.0.0.1:33439 got new rank 0
[15:27:13] task [xgboost.dask]:tcp://127.0.0.1:33439 got new rank 0
[15:27:15] task [xgboost.dask]:tcp://127.0.0.1:33439 got new rank 0
[15:27:16] task [xgboost.dask]:tcp://127.0.0.1:33439 got new rank 0
[15:27:17] task [xgboost.dask]:tcp://127.0.0.1:33439 got new rank 0
[15:27:18] task [xgboost.dask]:tcp://127.0.0.1:33439 got new rank 0
[15:27:20] task [xgboost.dask]:tcp://127.0.0.1:33439 got new rank 0
[15:27:21] task [xgboost.dask]:tcp://127.0.0.1:33439 got new rank 0
[15:27:22] task [xgboost.dask]:tcp://127.0.0.1:33439 got new rank 0
[15:27:24] task [xgboost.dask]:tcp://127.0.0.1:33439 got new rank 0
[15:27:25] task [xgboost.dask]:tcp://127.0.0.1:33439 got new rank 0
[15:27:26] task [xgboost.dask]:tcp://127.0.0.1:33439 got new rank 0
[15:27:27] task [xgboost.dask]:tcp://127.0.0.1:33439 got new rank 0
[15:27:29] task [xgboost.dask]:tcp://127.0.0.1:33439 got new rank 0
[15:27:30] task [xgboost.dask]:tcp://127.0.0.1:33439 got new rank 0
[15:27:31] task [xgboost.dask]:tcp://127.0.0.1:33439 got new rank 0
[15:27:32] task [xgboost.dask]:tcp://127.0.0.1:33439 got new rank 0
[15:27:34] task [xgboost.dask]:tcp://127.0.0.1:33439 got new rank 0
[15:27:35] task [xgboost.dask]:tcp://127.0.0.1:33439 got new rank 0
[15:27:36] task [xgboost.dask]:tcp://127.0.0.1:33439 got new rank 0
[15:27:38] task [xgboost.dask]:tcp://127.0.0.1:33439 got new rank 0
[15:27:39] task [xgboost.dask]:tcp://127.0.0.1:33439 got new rank 0
[15:27:40] task [xgboost.dask]:tcp://127.0.0.1:33439 got new rank 0
[15:27:41] task [xgboost.dask]:tcp://127.0.0.1:33439 got new rank 0
[15:27:43] task [xgboost.dask]:tcp://127.0.0.1:33439 got new rank 0
[15:27:44] task [xgboost.dask]:tcp://127.0.0.1:33439 got new rank 0
[15:27:45] task [xgboost.dask]:tcp://127.0.0.1:33439 got new rank 0
[15:27:46] task [xgboost.dask]:tcp://127.0.0.1:33439 got new rank 0
[15:27:48] task [xgboost.dask]:tcp://127.0.0.1:33439 got new rank 0
[15:27:49] task [xgboost.dask]:tcp://127.0.0.1:33439 got new rank 0
[15:27:50] task [xgboost.dask]:tcp://127.0.0.1:33439 got new rank 0
[15:27:52] task [xgboost.dask]:tcp://127.0.0.1:33439 got new rank 0
[15:27:53] task [xgboost.dask]:tcp://127.0.0.1:33439 got new rank 0
[15:27:54] task [xgboost.dask]:tcp://127.0.0.1:33439 got new rank 0
[15:27:55] task [xgboost.dask]:tcp://127.0.0.1:33439 got new rank 0
[15:27:57] task [xgboost.dask]:tcp://127.0.0.1:33439 got new rank 0
[15:27:58] task [xgboost.dask]:tcp://127.0.0.1:33439 got new rank 0
[15:27:59] task [xgboost.dask]:tcp://127.0.0.1:33439 got new rank 0
[15:28:00] task [xgboost.dask]:tcp://127.0.0.1:33439 got new rank 0
[15:28:02] task [xgboost.dask]:tcp://127.0.0.1:33439 got new rank 0
[15:28:03] task [xgboost.dask]:tcp://127.0.0.1:33439 got new rank 0
[15:28:04] task [xgboost.dask]:tcp://127.0.0.1:33439 got new rank 0
[15:28:06] task [xgboost.dask]:tcp://127.0.0.1:33439 got new rank 0
[15:28:07] task [xgboost.dask]:tcp://127.0.0.1:33439 got new rank 0
[15:28:08] task [xgboost.dask]:tcp://127.0.0.1:33439 got new rank 0
[15:28:10] task [xgboost.dask]:tcp://127.0.0.1:33439 got new rank 0
[15:28:11] task [xgboost.dask]:tcp://127.0.0.1:33439 got new rank 0
[15:28:12] task [xgboost.dask]:tcp://127.0.0.1:33439 got new rank 0
[15:28:13] task [xgboost.dask]:tcp://127.0.0.1:33439 got new rank 0
[15:28:14] task [xgboost.dask]:tcp://127.0.0.1:33439 got new rank 0
[15:28:16] task [xgboost.dask]:tcp://127.0.0.1:33439 got new rank 0
[15:28:17] task [xgboost.dask]:tcp://127.0.0.1:33439 got new rank 0
[15:28:18] task [xgboost.dask]:tcp://127.0.0.1:33439 got new rank 0
[15:28:20] task [xgboost.dask]:tcp://127.0.0.1:33439 got new rank 0
[15:28:21] task [xgboost.dask]:tcp://127.0.0.1:33439 got new rank 0
[15:28:22] task [xgboost.dask]:tcp://127.0.0.1:33439 got new rank 0
[15:28:24] task [xgboost.dask]:tcp://127.0.0.1:33439 got new rank 0
[15:28:25] task [xgboost.dask]:tcp://127.0.0.1:33439 got new rank 0
[15:28:26] task [xgboost.dask]:tcp://127.0.0.1:33439 got new rank 0
[15:28:27] task [xgboost.dask]:tcp://127.0.0.1:33439 got new rank 0
[15:28:29] task [xgboost.dask]:tcp://127.0.0.1:33439 got new rank 0
[15:28:30] task [xgboost.dask]:tcp://127.0.0.1:33439 got new rank 0
[15:28:31] task [xgboost.dask]:tcp://127.0.0.1:33439 got new rank 0
[15:28:32] task [xgboost.dask]:tcp://127.0.0.1:33439 got new rank 0
[15:28:34] task [xgboost.dask]:tcp://127.0.0.1:33439 got new rank 0
[15:28:35] task [xgboost.dask]:tcp://127.0.0.1:33439 got new rank 0
[15:28:36] task [xgboost.dask]:tcp://127.0.0.1:33439 got new rank 0
[15:28:38] task [xgboost.dask]:tcp://127.0.0.1:33439 got new rank 0
[15:28:39] task [xgboost.dask]:tcp://127.0.0.1:33439 got new rank 0
[15:28:40] task [xgboost.dask]:tcp://127.0.0.1:33439 got new rank 0
[15:28:41] task [xgboost.dask]:tcp://127.0.0.1:33439 got new rank 0
[15:28:43] task [xgboost.dask]:tcp://127.0.0.1:33439 got new rank 0
[15:28:44] task [xgboost.dask]:tcp://127.0.0.1:33439 got new rank 0
[15:28:45] task [xgboost.dask]:tcp://127.0.0.1:33439 got new rank 0
[15:28:46] task [xgboost.dask]:tcp://127.0.0.1:33439 got new rank 0
[15:28:48] task [xgboost.dask]:tcp://127.0.0.1:33439 got new rank 0
[15:28:49] task [xgboost.dask]:tcp://127.0.0.1:33439 got new rank 0
[15:28:50] task [xgboost.dask]:tcp://127.0.0.1:33439 got new rank 0
[15:28:52] task [xgboost.dask]:tcp://127.0.0.1:33439 got new rank 0
[15:28:53] task [xgboost.dask]:tcp://127.0.0.1:33439 got new rank 0
[15:28:54] task [xgboost.dask]:tcp://127.0.0.1:33439 got new rank 0
[15:28:55] task [xgboost.dask]:tcp://127.0.0.1:33439 got new rank 0
[15:28:56] task [xgboost.dask]:tcp://127.0.0.1:33439 got new rank 0
[15:28:58] task [xgboost.dask]:tcp://127.0.0.1:33439 got new rank 0
[15:28:59] task [xgboost.dask]:tcp://127.0.0.1:33439 got new rank 0
[15:29:00] task [xgboost.dask]:tcp://127.0.0.1:33439 got new rank 0
[15:29:02] task [xgboost.dask]:tcp://127.0.0.1:33439 got new rank 0
[15:29:03] task [xgboost.dask]:tcp://127.0.0.1:33439 got new rank 0
[15:29:04] task [xgboost.dask]:tcp://127.0.0.1:33439 got new rank 0
[15:29:05] task [xgboost.dask]:tcp://127.0.0.1:33439 got new rank 0
[15:29:07] task [xgboost.dask]:tcp://127.0.0.1:33439 got new rank 0
[15:29:08] task [xgboost.dask]:tcp://127.0.0.1:33439 got new rank 0
[15:29:09] task [xgboost.dask]:tcp://127.0.0.1:33439 got new rank 0
[15:29:11] task [xgboost.dask]:tcp://127.0.0.1:33439 got new rank 0
[15:29:12] task [xgboost.dask]:tcp://127.0.0.1:33439 got new rank 0
[15:29:13] task [xgboost.dask]:tcp://127.0.0.1:33439 got new rank 0
[15:29:15] task [xgboost.dask]:tcp://127.0.0.1:33439 got new rank 0
[15:29:16] task [xgboost.dask]:tcp://127.0.0.1:33439 got new rank 0
[15:29:17] task [xgboost.dask]:tcp://127.0.0.1:33439 got new rank 0
[15:29:18] task [xgboost.dask]:tcp://127.0.0.1:33439 got new rank 0
[15:29:19] task [xgboost.dask]:tcp://127.0.0.1:33439 got new rank 0
[15:29:21] task [xgboost.dask]:tcp://127.0.0.1:33439 got new rank 0
[15:29:22] task [xgboost.dask]:tcp://127.0.0.1:33439 got new rank 0
[15:29:23] task [xgboost.dask]:tcp://127.0.0.1:33439 got new rank 0
[15:29:25] task [xgboost.dask]:tcp://127.0.0.1:33439 got new rank 0
[15:29:26] task [xgboost.dask]:tcp://127.0.0.1:33439 got new rank 0
[15:29:27] task [xgboost.dask]:tcp://127.0.0.1:33439 got new rank 0
[15:29:28] task [xgboost.dask]:tcp://127.0.0.1:33439 got new rank 0
[15:29:30] task [xgboost.dask]:tcp://127.0.0.1:33439 got new rank 0
[15:29:31] task [xgboost.dask]:tcp://127.0.0.1:33439 got new rank 0
[15:29:32] task [xgboost.dask]:tcp://127.0.0.1:33439 got new rank 0
[15:29:34] task [xgboost.dask]:tcp://127.0.0.1:33439 got new rank 0
[15:29:35] task [xgboost.dask]:tcp://127.0.0.1:33439 got new rank 0
[15:29:36] task [xgboost.dask]:tcp://127.0.0.1:33439 got new rank 0
[15:29:37] task [xgboost.dask]:tcp://127.0.0.1:33439 got new rank 0
[15:29:38] task [xgboost.dask]:tcp://127.0.0.1:33439 got new rank 0
[15:29:40] task [xgboost.dask]:tcp://127.0.0.1:33439 got new rank 0
[15:29:41] task [xgboost.dask]:tcp://127.0.0.1:33439 got new rank 0
[15:29:42] task [xgboost.dask]:tcp://127.0.0.1:33439 got new rank 0
[15:29:44] task [xgboost.dask]:tcp://127.0.0.1:33439 got new rank 0
[15:29:45] task [xgboost.dask]:tcp://127.0.0.1:33439 got new rank 0
[15:29:46] task [xgboost.dask]:tcp://127.0.0.1:33439 got new rank 0
[15:29:47] task [xgboost.dask]:tcp://127.0.0.1:33439 got new rank 0
[15:29:49] task [xgboost.dask]:tcp://127.0.0.1:33439 got new rank 0
[15:29:50] task [xgboost.dask]:tcp://127.0.0.1:33439 got new rank 0
[15:29:51] task [xgboost.dask]:tcp://127.0.0.1:33439 got new rank 0
[15:29:53] task [xgboost.dask]:tcp://127.0.0.1:33439 got new rank 0
[15:29:54] task [xgboost.dask]:tcp://127.0.0.1:33439 got new rank 0
[15:29:55] task [xgboost.dask]:tcp://127.0.0.1:33439 got new rank 0
[15:29:56] task [xgboost.dask]:tcp://127.0.0.1:33439 got new rank 0
[15:29:57] task [xgboost.dask]:tcp://127.0.0.1:33439 got new rank 0
[15:29:59] task [xgboost.dask]:tcp://127.0.0.1:33439 got new rank 0
[15:30:00] task [xgboost.dask]:tcp://127.0.0.1:33439 got new rank 0
[15:30:01] task [xgboost.dask]:tcp://127.0.0.1:33439 got new rank 0
[15:30:03] task [xgboost.dask]:tcp://127.0.0.1:33439 got new rank 0
[15:30:04] task [xgboost.dask]:tcp://127.0.0.1:33439 got new rank 0
[15:30:05] task [xgboost.dask]:tcp://127.0.0.1:33439 got new rank 0
[15:30:06] task [xgboost.dask]:tcp://127.0.0.1:33439 got new rank 0
[15:30:08] task [xgboost.dask]:tcp://127.0.0.1:33439 got new rank 0
[15:30:09] task [xgboost.dask]:tcp://127.0.0.1:33439 got new rank 0
[15:30:10] task [xgboost.dask]:tcp://127.0.0.1:33439 got new rank 0
[15:30:11] task [xgboost.dask]:tcp://127.0.0.1:33439 got new rank 0
[15:30:13] task [xgboost.dask]:tcp://127.0.0.1:33439 got new rank 0
[15:30:14] task [xgboost.dask]:tcp://127.0.0.1:33439 got new rank 0
[15:30:15] task [xgboost.dask]:tcp://127.0.0.1:33439 got new rank 0
[15:30:17] task [xgboost.dask]:tcp://127.0.0.1:33439 got new rank 0
[15:30:18] task [xgboost.dask]:tcp://127.0.0.1:33439 got new rank 0
[15:30:19] task [xgboost.dask]:tcp://127.0.0.1:33439 got new rank 0
[15:30:20] task [xgboost.dask]:tcp://127.0.0.1:33439 got new rank 0
[15:30:22] task [xgboost.dask]:tcp://127.0.0.1:33439 got new rank 0
[15:30:23] task [xgboost.dask]:tcp://127.0.0.1:33439 got new rank 0
[15:30:24] task [xgboost.dask]:tcp://127.0.0.1:33439 got new rank 0
[15:30:25] task [xgboost.dask]:tcp://127.0.0.1:33439 got new rank 0
[15:30:27] task [xgboost.dask]:tcp://127.0.0.1:33439 got new rank 0
[15:30:28] task [xgboost.dask]:tcp://127.0.0.1:33439 got new rank 0
[15:30:29] task [xgboost.dask]:tcp://127.0.0.1:33439 got new rank 0
[15:30:30] task [xgboost.dask]:tcp://127.0.0.1:33439 got new rank 0
[15:30:32] task [xgboost.dask]:tcp://127.0.0.1:33439 got new rank 0
[15:30:33] task [xgboost.dask]:tcp://127.0.0.1:33439 got new rank 0
[15:30:34] task [xgboost.dask]:tcp://127.0.0.1:33439 got new rank 0
[15:30:36] task [xgboost.dask]:tcp://127.0.0.1:33439 got new rank 0
[15:30:37] task [xgboost.dask]:tcp://127.0.0.1:33439 got new rank 0
[15:30:38] task [xgboost.dask]:tcp://127.0.0.1:33439 got new rank 0
[15:30:40] task [xgboost.dask]:tcp://127.0.0.1:33439 got new rank 0
[15:30:41] task [xgboost.dask]:tcp://127.0.0.1:33439 got new rank 0
[15:30:42] task [xgboost.dask]:tcp://127.0.0.1:33439 got new rank 0
[15:30:43] task [xgboost.dask]:tcp://127.0.0.1:33439 got new rank 0
[15:30:44] task [xgboost.dask]:tcp://127.0.0.1:33439 got new rank 0
[15:30:46] task [xgboost.dask]:tcp://127.0.0.1:33439 got new rank 0
[15:30:47] task [xgboost.dask]:tcp://127.0.0.1:33439 got new rank 0
[15:30:48] task [xgboost.dask]:tcp://127.0.0.1:33439 got new rank 0
[15:30:50] task [xgboost.dask]:tcp://127.0.0.1:33439 got new rank 0
[15:30:51] task [xgboost.dask]:tcp://127.0.0.1:33439 got new rank 0
[15:30:52] task [xgboost.dask]:tcp://127.0.0.1:33439 got new rank 0
[15:30:54] task [xgboost.dask]:tcp://127.0.0.1:33439 got new rank 0
[15:30:55] task [xgboost.dask]:tcp://127.0.0.1:33439 got new rank 0
[15:30:56] task [xgboost.dask]:tcp://127.0.0.1:33439 got new rank 0
[15:30:58] task [xgboost.dask]:tcp://127.0.0.1:33439 got new rank 0
[15:30:59] task [xgboost.dask]:tcp://127.0.0.1:33439 got new rank 0
[15:31:00] task [xgboost.dask]:tcp://127.0.0.1:33439 got new rank 0
[15:31:01] task [xgboost.dask]:tcp://127.0.0.1:33439 got new rank 0
[15:31:03] task [xgboost.dask]:tcp://127.0.0.1:33439 got new rank 0
[15:31:04] task [xgboost.dask]:tcp://127.0.0.1:33439 got new rank 0
[15:31:05] task [xgboost.dask]:tcp://127.0.0.1:33439 got new rank 0
[15:31:06] task [xgboost.dask]:tcp://127.0.0.1:33439 got new rank 0
[15:31:07] task [xgboost.dask]:tcp://127.0.0.1:33439 got new rank 0
[15:31:09] task [xgboost.dask]:tcp://127.0.0.1:33439 got new rank 0
[15:31:10] task [xgboost.dask]:tcp://127.0.0.1:33439 got new rank 0
[15:31:11] task [xgboost.dask]:tcp://127.0.0.1:33439 got new rank 0
[15:31:13] task [xgboost.dask]:tcp://127.0.0.1:33439 got new rank 0
[15:31:14] task [xgboost.dask]:tcp://127.0.0.1:33439 got new rank 0
[15:31:15] task [xgboost.dask]:tcp://127.0.0.1:33439 got new rank 0
[15:31:16] task [xgboost.dask]:tcp://127.0.0.1:33439 got new rank 0
[15:31:18] task [xgboost.dask]:tcp://127.0.0.1:33439 got new rank 0
[15:31:19] task [xgboost.dask]:tcp://127.0.0.1:33439 got new rank 0
[15:31:20] task [xgboost.dask]:tcp://127.0.0.1:33439 got new rank 0
[15:31:22] task [xgboost.dask]:tcp://127.0.0.1:33439 got new rank 0
[15:31:23] task [xgboost.dask]:tcp://127.0.0.1:33439 got new rank 0
[15:31:24] task [xgboost.dask]:tcp://127.0.0.1:33439 got new rank 0
[15:31:25] task [xgboost.dask]:tcp://127.0.0.1:33439 got new rank 0
[15:31:27] task [xgboost.dask]:tcp://127.0.0.1:33439 got new rank 0
[15:31:28] task [xgboost.dask]:tcp://127.0.0.1:33439 got new rank 0
[15:31:29] task [xgboost.dask]:tcp://127.0.0.1:33439 got new rank 0
[15:31:30] task [xgboost.dask]:tcp://127.0.0.1:33439 got new rank 0
[15:31:32] task [xgboost.dask]:tcp://127.0.0.1:33439 got new rank 0
[15:31:33] task [xgboost.dask]:tcp://127.0.0.1:33439 got new rank 0
[15:31:34] task [xgboost.dask]:tcp://127.0.0.1:33439 got new rank 0
[15:31:35] task [xgboost.dask]:tcp://127.0.0.1:33439 got new rank 0
[15:31:37] task [xgboost.dask]:tcp://127.0.0.1:33439 got new rank 0
[15:31:38] task [xgboost.dask]:tcp://127.0.0.1:33439 got new rank 0
[15:31:39] task [xgboost.dask]:tcp://127.0.0.1:33439 got new rank 0
[15:31:40] task [xgboost.dask]:tcp://127.0.0.1:33439 got new rank 0
[15:31:42] task [xgboost.dask]:tcp://127.0.0.1:33439 got new rank 0
[15:31:43] task [xgboost.dask]:tcp://127.0.0.1:33439 got new rank 0
[15:31:44] task [xgboost.dask]:tcp://127.0.0.1:33439 got new rank 0
[15:31:46] task [xgboost.dask]:tcp://127.0.0.1:33439 got new rank 0
[15:31:47] task [xgboost.dask]:tcp://127.0.0.1:33439 got new rank 0
[15:31:48] task [xgboost.dask]:tcp://127.0.0.1:33439 got new rank 0
[15:31:49] task [xgboost.dask]:tcp://127.0.0.1:33439 got new rank 0
[15:31:51] task [xgboost.dask]:tcp://127.0.0.1:33439 got new rank 0
[15:31:52] task [xgboost.dask]:tcp://127.0.0.1:33439 got new rank 0
[15:31:53] task [xgboost.dask]:tcp://127.0.0.1:33439 got new rank 0
[15:31:54] task [xgboost.dask]:tcp://127.0.0.1:33439 got new rank 0
[15:31:56] task [xgboost.dask]:tcp://127.0.0.1:33439 got new rank 0
[15:31:57] task [xgboost.dask]:tcp://127.0.0.1:33439 got new rank 0
[15:31:58] task [xgboost.dask]:tcp://127.0.0.1:33439 got new rank 0
[15:32:00] task [xgboost.dask]:tcp://127.0.0.1:33439 got new rank 0
[15:32:01] task [xgboost.dask]:tcp://127.0.0.1:33439 got new rank 0
[15:32:02] task [xgboost.dask]:tcp://127.0.0.1:33439 got new rank 0
[15:32:03] task [xgboost.dask]:tcp://127.0.0.1:33439 got new rank 0
[15:32:05] task [xgboost.dask]:tcp://127.0.0.1:33439 got new rank 0
[15:32:06] task [xgboost.dask]:tcp://127.0.0.1:33439 got new rank 0
[15:32:07] task [xgboost.dask]:tcp://127.0.0.1:33439 got new rank 0
[15:32:09] task [xgboost.dask]:tcp://127.0.0.1:33439 got new rank 0
[15:32:10] task [xgboost.dask]:tcp://127.0.0.1:33439 got new rank 0
[15:32:11] task [xgboost.dask]:tcp://127.0.0.1:33439 got new rank 0
[15:32:12] task [xgboost.dask]:tcp://127.0.0.1:33439 got new rank 0
[15:32:14] task [xgboost.dask]:tcp://127.0.0.1:33439 got new rank 0
[15:32:15] task [xgboost.dask]:tcp://127.0.0.1:33439 got new rank 0
[15:32:16] task [xgboost.dask]:tcp://127.0.0.1:33439 got new rank 0
[15:32:18] task [xgboost.dask]:tcp://127.0.0.1:33439 got new rank 0
[15:32:19] task [xgboost.dask]:tcp://127.0.0.1:33439 got new rank 0
[15:32:20] task [xgboost.dask]:tcp://127.0.0.1:33439 got new rank 0
[15:32:21] task [xgboost.dask]:tcp://127.0.0.1:33439 got new rank 0
[15:32:22] task [xgboost.dask]:tcp://127.0.0.1:33439 got new rank 0
[15:32:24] task [xgboost.dask]:tcp://127.0.0.1:33439 got new rank 0
[15:32:25] task [xgboost.dask]:tcp://127.0.0.1:33439 got new rank 0
[15:32:26] task [xgboost.dask]:tcp://127.0.0.1:33439 got new rank 0
[15:32:28] task [xgboost.dask]:tcp://127.0.0.1:33439 got new rank 0
[15:32:29] task [xgboost.dask]:tcp://127.0.0.1:33439 got new rank 0
[15:32:30] task [xgboost.dask]:tcp://127.0.0.1:33439 got new rank 0
[15:32:31] task [xgboost.dask]:tcp://127.0.0.1:33439 got new rank 0
[15:32:33] task [xgboost.dask]:tcp://127.0.0.1:33439 got new rank 0
[15:32:34] task [xgboost.dask]:tcp://127.0.0.1:33439 got new rank 0
[15:32:35] task [xgboost.dask]:tcp://127.0.0.1:33439 got new rank 0
[15:32:37] task [xgboost.dask]:tcp://127.0.0.1:33439 got new rank 0
[15:32:38] task [xgboost.dask]:tcp://127.0.0.1:33439 got new rank 0
[15:32:39] task [xgboost.dask]:tcp://127.0.0.1:33439 got new rank 0
[15:32:40] task [xgboost.dask]:tcp://127.0.0.1:33439 got new rank 0
[15:32:42] task [xgboost.dask]:tcp://127.0.0.1:33439 got new rank 0
[15:32:43] task [xgboost.dask]:tcp://127.0.0.1:33439 got new rank 0
[15:32:44] task [xgboost.dask]:tcp://127.0.0.1:33439 got new rank 0
[15:32:46] task [xgboost.dask]:tcp://127.0.0.1:33439 got new rank 0
[15:32:47] task [xgboost.dask]:tcp://127.0.0.1:33439 got new rank 0
[15:32:48] task [xgboost.dask]:tcp://127.0.0.1:33439 got new rank 0
[15:32:49] task [xgboost.dask]:tcp://127.0.0.1:33439 got new rank 0
[15:32:51] task [xgboost.dask]:tcp://127.0.0.1:33439 got new rank 0
[15:32:52] task [xgboost.dask]:tcp://127.0.0.1:33439 got new rank 0
[15:32:53] task [xgboost.dask]:tcp://127.0.0.1:33439 got new rank 0
[15:32:54] task [xgboost.dask]:tcp://127.0.0.1:33439 got new rank 0
[15:32:56] task [xgboost.dask]:tcp://127.0.0.1:33439 got new rank 0
[15:32:57] task [xgboost.dask]:tcp://127.0.0.1:33439 got new rank 0
[15:33:03] task [xgboost.dask]:tcp://127.0.0.1:33439 got new rank 0
[15:33:04] task [xgboost.dask]:tcp://127.0.0.1:33439 got new rank 0
[15:33:05] task [xgboost.dask]:tcp://127.0.0.1:33439 got new rank 0
[15:33:06] task [xgboost.dask]:tcp://127.0.0.1:33439 got new rank 0
[15:33:08] task [xgboost.dask]:tcp://127.0.0.1:33439 got new rank 0
[15:33:09] task [xgboost.dask]:tcp://127.0.0.1:33439 got new rank 0
[15:33:10] task [xgboost.dask]:tcp://127.0.0.1:33439 got new rank 0
[15:33:12] task [xgboost.dask]:tcp://127.0.0.1:33439 got new rank 0
[15:33:13] task [xgboost.dask]:tcp://127.0.0.1:33439 got new rank 0
[15:33:14] task [xgboost.dask]:tcp://127.0.0.1:33439 got new rank 0
[15:33:15] task [xgboost.dask]:tcp://127.0.0.1:33439 got new rank 0
[15:33:17] task [xgboost.dask]:tcp://127.0.0.1:33439 got new rank 0
[15:33:18] task [xgboost.dask]:tcp://127.0.0.1:33439 got new rank 0
[15:33:19] task [xgboost.dask]:tcp://127.0.0.1:33439 got new rank 0
[15:33:21] task [xgboost.dask]:tcp://127.0.0.1:33439 got new rank 0
[15:33:22] task [xgboost.dask]:tcp://127.0.0.1:33439 got new rank 0
[15:33:23] task [xgboost.dask]:tcp://127.0.0.1:33439 got new rank 0
[15:33:24] task [xgboost.dask]:tcp://127.0.0.1:33439 got new rank 0
[15:33:26] task [xgboost.dask]:tcp://127.0.0.1:33439 got new rank 0
[15:33:27] task [xgboost.dask]:tcp://127.0.0.1:33439 got new rank 0
[15:33:28] task [xgboost.dask]:tcp://127.0.0.1:33439 got new rank 0
[15:33:30] task [xgboost.dask]:tcp://127.0.0.1:33439 got new rank 0
[15:33:31] task [xgboost.dask]:tcp://127.0.0.1:33439 got new rank 0
[15:33:32] task [xgboost.dask]:tcp://127.0.0.1:33439 got new rank 0
[15:33:33] task [xgboost.dask]:tcp://127.0.0.1:33439 got new rank 0
[15:33:34] task [xgboost.dask]:tcp://127.0.0.1:33439 got new rank 0
[15:33:36] task [xgboost.dask]:tcp://127.0.0.1:33439 got new rank 0
[15:33:37] task [xgboost.dask]:tcp://127.0.0.1:33439 got new rank 0
[15:33:38] task [xgboost.dask]:tcp://127.0.0.1:33439 got new rank 0
[15:33:40] task [xgboost.dask]:tcp://127.0.0.1:33439 got new rank 0
[15:33:41] task [xgboost.dask]:tcp://127.0.0.1:33439 got new rank 0
[15:33:42] task [xgboost.dask]:tcp://127.0.0.1:33439 got new rank 0
[15:33:43] task [xgboost.dask]:tcp://127.0.0.1:33439 got new rank 0
[15:33:45] task [xgboost.dask]:tcp://127.0.0.1:33439 got new rank 0
[15:33:46] task [xgboost.dask]:tcp://127.0.0.1:33439 got new rank 0
[15:33:47] task [xgboost.dask]:tcp://127.0.0.1:33439 got new rank 0
[15:33:49] task [xgboost.dask]:tcp://127.0.0.1:33439 got new rank 0
[15:33:50] task [xgboost.dask]:tcp://127.0.0.1:33439 got new rank 0
[15:33:51] task [xgboost.dask]:tcp://127.0.0.1:33439 got new rank 0
[15:33:52] task [xgboost.dask]:tcp://127.0.0.1:33439 got new rank 0
[15:33:54] task [xgboost.dask]:tcp://127.0.0.1:33439 got new rank 0
[15:33:55] task [xgboost.dask]:tcp://127.0.0.1:33439 got new rank 0
[15:33:56] task [xgboost.dask]:tcp://127.0.0.1:33439 got new rank 0
[15:33:57] task [xgboost.dask]:tcp://127.0.0.1:33439 got new rank 0
[15:33:59] task [xgboost.dask]:tcp://127.0.0.1:33439 got new rank 0
[15:34:00] task [xgboost.dask]:tcp://127.0.0.1:33439 got new rank 0
[15:34:01] task [xgboost.dask]:tcp://127.0.0.1:33439 got new rank 0
[15:34:03] task [xgboost.dask]:tcp://127.0.0.1:33439 got new rank 0
[15:34:04] task [xgboost.dask]:tcp://127.0.0.1:33439 got new rank 0
[15:34:05] task [xgboost.dask]:tcp://127.0.0.1:33439 got new rank 0
[15:34:06] task [xgboost.dask]:tcp://127.0.0.1:33439 got new rank 0
[15:34:08] task [xgboost.dask]:tcp://127.0.0.1:33439 got new rank 0
[15:34:09] task [xgboost.dask]:tcp://127.0.0.1:33439 got new rank 0
[15:34:10] task [xgboost.dask]:tcp://127.0.0.1:33439 got new rank 0
[15:34:11] task [xgboost.dask]:tcp://127.0.0.1:33439 got new rank 0
[15:34:13] task [xgboost.dask]:tcp://127.0.0.1:33439 got new rank 0
[15:34:14] task [xgboost.dask]:tcp://127.0.0.1:33439 got new rank 0
[15:34:15] task [xgboost.dask]:tcp://127.0.0.1:33439 got new rank 0
[15:34:17] task [xgboost.dask]:tcp://127.0.0.1:33439 got new rank 0
[15:34:18] task [xgboost.dask]:tcp://127.0.0.1:33439 got new rank 0
[15:34:19] task [xgboost.dask]:tcp://127.0.0.1:33439 got new rank 0
[15:34:20] task [xgboost.dask]:tcp://127.0.0.1:33439 got new rank 0
[15:34:22] task [xgboost.dask]:tcp://127.0.0.1:33439 got new rank 0
[15:34:23] task [xgboost.dask]:tcp://127.0.0.1:33439 got new rank 0
[15:34:24] task [xgboost.dask]:tcp://127.0.0.1:33439 got new rank 0
[15:34:25] task [xgboost.dask]:tcp://127.0.0.1:33439 got new rank 0
[15:34:27] task [xgboost.dask]:tcp://127.0.0.1:33439 got new rank 0
[15:34:28] task [xgboost.dask]:tcp://127.0.0.1:33439 got new rank 0
[15:34:29] task [xgboost.dask]:tcp://127.0.0.1:33439 got new rank 0
[15:34:31] task [xgboost.dask]:tcp://127.0.0.1:33439 got new rank 0
[15:34:32] task [xgboost.dask]:tcp://127.0.0.1:33439 got new rank 0
[15:34:33] task [xgboost.dask]:tcp://127.0.0.1:33439 got new rank 0
[15:34:34] task [xgboost.dask]:tcp://127.0.0.1:33439 got new rank 0
[15:34:36] task [xgboost.dask]:tcp://127.0.0.1:33439 got new rank 0
[15:34:37] task [xgboost.dask]:tcp://127.0.0.1:33439 got new rank 0
[15:34:38] task [xgboost.dask]:tcp://127.0.0.1:33439 got new rank 0
[15:34:39] task [xgboost.dask]:tcp://127.0.0.1:33439 got new rank 0
[15:34:41] task [xgboost.dask]:tcp://127.0.0.1:33439 got new rank 0
[15:34:42] task [xgboost.dask]:tcp://127.0.0.1:33439 got new rank 0
[15:34:43] task [xgboost.dask]:tcp://127.0.0.1:33439 got new rank 0
[15:34:44] task [xgboost.dask]:tcp://127.0.0.1:33439 got new rank 0
[15:34:46] task [xgboost.dask]:tcp://127.0.0.1:33439 got new rank 0
[15:34:47] task [xgboost.dask]:tcp://127.0.0.1:33439 got new rank 0
[15:34:48] task [xgboost.dask]:tcp://127.0.0.1:33439 got new rank 0
[15:34:50] task [xgboost.dask]:tcp://127.0.0.1:33439 got new rank 0
[15:34:51] task [xgboost.dask]:tcp://127.0.0.1:33439 got new rank 0
[15:34:52] task [xgboost.dask]:tcp://127.0.0.1:33439 got new rank 0
[15:34:53] task [xgboost.dask]:tcp://127.0.0.1:33439 got new rank 0
[15:34:55] task [xgboost.dask]:tcp://127.0.0.1:33439 got new rank 0
[15:34:56] task [xgboost.dask]:tcp://127.0.0.1:33439 got new rank 0
[15:34:57] task [xgboost.dask]:tcp://127.0.0.1:33439 got new rank 0
[15:34:58] task [xgboost.dask]:tcp://127.0.0.1:33439 got new rank 0
[15:35:00] task [xgboost.dask]:tcp://127.0.0.1:33439 got new rank 0
[15:35:01] task [xgboost.dask]:tcp://127.0.0.1:33439 got new rank 0
[15:35:02] task [xgboost.dask]:tcp://127.0.0.1:33439 got new rank 0
[15:35:03] task [xgboost.dask]:tcp://127.0.0.1:33439 got new rank 0
[15:35:05] task [xgboost.dask]:tcp://127.0.0.1:33439 got new rank 0
[15:35:06] task [xgboost.dask]:tcp://127.0.0.1:33439 got new rank 0
[15:35:07] task [xgboost.dask]:tcp://127.0.0.1:33439 got new rank 0
[15:35:09] task [xgboost.dask]:tcp://127.0.0.1:33439 got new rank 0
[15:35:10] task [xgboost.dask]:tcp://127.0.0.1:33439 got new rank 0
[15:35:11] task [xgboost.dask]:tcp://127.0.0.1:33439 got new rank 0
[15:35:12] task [xgboost.dask]:tcp://127.0.0.1:33439 got new rank 0
[15:35:14] task [xgboost.dask]:tcp://127.0.0.1:33439 got new rank 0
[15:35:15] task [xgboost.dask]:tcp://127.0.0.1:33439 got new rank 0
[15:35:16] task [xgboost.dask]:tcp://127.0.0.1:33439 got new rank 0
[15:35:18] task [xgboost.dask]:tcp://127.0.0.1:33439 got new rank 0
[15:35:19] task [xgboost.dask]:tcp://127.0.0.1:33439 got new rank 0
[15:35:20] task [xgboost.dask]:tcp://127.0.0.1:33439 got new rank 0
[15:35:21] task [xgboost.dask]:tcp://127.0.0.1:33439 got new rank 0
[15:35:23] task [xgboost.dask]:tcp://127.0.0.1:33439 got new rank 0
[15:35:24] task [xgboost.dask]:tcp://127.0.0.1:33439 got new rank 0
[15:35:25] task [xgboost.dask]:tcp://127.0.0.1:33439 got new rank 0
[15:35:26] task [xgboost.dask]:tcp://127.0.0.1:33439 got new rank 0
[15:35:28] task [xgboost.dask]:tcp://127.0.0.1:33439 got new rank 0
[15:35:29] task [xgboost.dask]:tcp://127.0.0.1:33439 got new rank 0
[15:35:30] task [xgboost.dask]:tcp://127.0.0.1:33439 got new rank 0
[15:35:31] task [xgboost.dask]:tcp://127.0.0.1:33439 got new rank 0
[15:35:33] task [xgboost.dask]:tcp://127.0.0.1:33439 got new rank 0
[15:35:34] task [xgboost.dask]:tcp://127.0.0.1:33439 got new rank 0
[15:35:35] task [xgboost.dask]:tcp://127.0.0.1:33439 got new rank 0
[15:35:37] task [xgboost.dask]:tcp://127.0.0.1:33439 got new rank 0
[15:35:38] task [xgboost.dask]:tcp://127.0.0.1:33439 got new rank 0
[15:35:39] task [xgboost.dask]:tcp://127.0.0.1:33439 got new rank 0
[15:35:40] task [xgboost.dask]:tcp://127.0.0.1:33439 got new rank 0
[15:35:42] task [xgboost.dask]:tcp://127.0.0.1:33439 got new rank 0
[15:35:43] task [xgboost.dask]:tcp://127.0.0.1:33439 got new rank 0
[15:35:44] task [xgboost.dask]:tcp://127.0.0.1:33439 got new rank 0
[15:35:46] task [xgboost.dask]:tcp://127.0.0.1:33439 got new rank 0
[15:35:47] task [xgboost.dask]:tcp://127.0.0.1:33439 got new rank 0
[15:35:48] task [xgboost.dask]:tcp://127.0.0.1:33439 got new rank 0
[15:35:49] task [xgboost.dask]:tcp://127.0.0.1:33439 got new rank 0
[15:35:50] task [xgboost.dask]:tcp://127.0.0.1:33439 got new rank 0
[15:35:52] task [xgboost.dask]:tcp://127.0.0.1:33439 got new rank 0
[15:35:53] task [xgboost.dask]:tcp://127.0.0.1:33439 got new rank 0
[15:35:54] task [xgboost.dask]:tcp://127.0.0.1:33439 got new rank 0
[15:35:56] task [xgboost.dask]:tcp://127.0.0.1:33439 got new rank 0
[15:35:57] task [xgboost.dask]:tcp://127.0.0.1:33439 got new rank 0
[15:35:58] task [xgboost.dask]:tcp://127.0.0.1:33439 got new rank 0
[15:35:59] task [xgboost.dask]:tcp://127.0.0.1:33439 got new rank 0
[15:36:01] task [xgboost.dask]:tcp://127.0.0.1:33439 got new rank 0
[15:36:02] task [xgboost.dask]:tcp://127.0.0.1:33439 got new rank 0
[15:36:03] task [xgboost.dask]:tcp://127.0.0.1:33439 got new rank 0
[15:36:04] task [xgboost.dask]:tcp://127.0.0.1:33439 got new rank 0
[15:36:06] task [xgboost.dask]:tcp://127.0.0.1:33439 got new rank 0
[15:36:07] task [xgboost.dask]:tcp://127.0.0.1:33439 got new rank 0
[15:36:09] task [xgboost.dask]:tcp://127.0.0.1:33439 got new rank 0
[15:36:10] task [xgboost.dask]:tcp://127.0.0.1:33439 got new rank 0
[15:36:11] task [xgboost.dask]:tcp://127.0.0.1:33439 got new rank 0
[15:36:12] task [xgboost.dask]:tcp://127.0.0.1:33439 got new rank 0
[15:36:13] task [xgboost.dask]:tcp://127.0.0.1:33439 got new rank 0
[15:36:15] task [xgboost.dask]:tcp://127.0.0.1:33439 got new rank 0
[15:36:16] task [xgboost.dask]:tcp://127.0.0.1:33439 got new rank 0
[15:36:17] task [xgboost.dask]:tcp://127.0.0.1:33439 got new rank 0
[15:36:19] task [xgboost.dask]:tcp://127.0.0.1:33439 got new rank 0
[15:36:20] task [xgboost.dask]:tcp://127.0.0.1:33439 got new rank 0
[15:36:21] task [xgboost.dask]:tcp://127.0.0.1:33439 got new rank 0
[15:36:22] task [xgboost.dask]:tcp://127.0.0.1:33439 got new rank 0
[15:36:24] task [xgboost.dask]:tcp://127.0.0.1:33439 got new rank 0
[15:36:25] task [xgboost.dask]:tcp://127.0.0.1:33439 got new rank 0
[15:36:26] task [xgboost.dask]:tcp://127.0.0.1:33439 got new rank 0
[15:36:27] task [xgboost.dask]:tcp://127.0.0.1:33439 got new rank 0
[15:36:29] task [xgboost.dask]:tcp://127.0.0.1:33439 got new rank 0
[15:36:30] task [xgboost.dask]:tcp://127.0.0.1:33439 got new rank 0
[15:36:31] task [xgboost.dask]:tcp://127.0.0.1:33439 got new rank 0
[15:36:33] task [xgboost.dask]:tcp://127.0.0.1:33439 got new rank 0
[15:36:34] task [xgboost.dask]:tcp://127.0.0.1:33439 got new rank 0
[15:36:35] task [xgboost.dask]:tcp://127.0.0.1:33439 got new rank 0
[15:36:36] task [xgboost.dask]:tcp://127.0.0.1:33439 got new rank 0
[15:36:38] task [xgboost.dask]:tcp://127.0.0.1:33439 got new rank 0
[15:36:39] task [xgboost.dask]:tcp://127.0.0.1:33439 got new rank 0
[15:36:40] task [xgboost.dask]:tcp://127.0.0.1:33439 got new rank 0
[15:36:41] task [xgboost.dask]:tcp://127.0.0.1:33439 got new rank 0
[15:36:43] task [xgboost.dask]:tcp://127.0.0.1:33439 got new rank 0
[15:36:44] task [xgboost.dask]:tcp://127.0.0.1:33439 got new rank 0
[15:36:45] task [xgboost.dask]:tcp://127.0.0.1:33439 got new rank 0
[15:36:47] task [xgboost.dask]:tcp://127.0.0.1:33439 got new rank 0
[15:36:48] task [xgboost.dask]:tcp://127.0.0.1:33439 got new rank 0
[15:36:49] task [xgboost.dask]:tcp://127.0.0.1:33439 got new rank 0
[15:36:50] task [xgboost.dask]:tcp://127.0.0.1:33439 got new rank 0
[15:36:52] task [xgboost.dask]:tcp://127.0.0.1:33439 got new rank 0
[15:36:53] task [xgboost.dask]:tcp://127.0.0.1:33439 got new rank 0
[15:36:54] task [xgboost.dask]:tcp://127.0.0.1:33439 got new rank 0
[15:36:56] task [xgboost.dask]:tcp://127.0.0.1:33439 got new rank 0
[15:36:57] task [xgboost.dask]:tcp://127.0.0.1:33439 got new rank 0
[15:36:58] task [xgboost.dask]:tcp://127.0.0.1:33439 got new rank 0
[15:36:59] task [xgboost.dask]:tcp://127.0.0.1:33439 got new rank 0
[15:37:01] task [xgboost.dask]:tcp://127.0.0.1:33439 got new rank 0
[15:37:02] task [xgboost.dask]:tcp://127.0.0.1:33439 got new rank 0
[15:37:03] task [xgboost.dask]:tcp://127.0.0.1:33439 got new rank 0
[15:37:04] task [xgboost.dask]:tcp://127.0.0.1:33439 got new rank 0
[15:37:05] task [xgboost.dask]:tcp://127.0.0.1:33439 got new rank 0
[15:37:07] task [xgboost.dask]:tcp://127.0.0.1:33439 got new rank 0
[15:37:08] task [xgboost.dask]:tcp://127.0.0.1:33439 got new rank 0
[15:37:10] task [xgboost.dask]:tcp://127.0.0.1:33439 got new rank 0
[15:37:11] task [xgboost.dask]:tcp://127.0.0.1:33439 got new rank 0
[15:37:12] task [xgboost.dask]:tcp://127.0.0.1:33439 got new rank 0
[15:37:13] task [xgboost.dask]:tcp://127.0.0.1:33439 got new rank 0
[15:37:14] task [xgboost.dask]:tcp://127.0.0.1:33439 got new rank 0
[15:37:16] task [xgboost.dask]:tcp://127.0.0.1:33439 got new rank 0
[15:37:17] task [xgboost.dask]:tcp://127.0.0.1:33439 got new rank 0
[15:37:18] task [xgboost.dask]:tcp://127.0.0.1:33439 got new rank 0
[15:37:19] task [xgboost.dask]:tcp://127.0.0.1:33439 got new rank 0
[15:37:21] task [xgboost.dask]:tcp://127.0.0.1:33439 got new rank 0
[15:37:22] task [xgboost.dask]:tcp://127.0.0.1:33439 got new rank 0
[15:37:24] task [xgboost.dask]:tcp://127.0.0.1:33439 got new rank 0
[15:37:25] task [xgboost.dask]:tcp://127.0.0.1:33439 got new rank 0
[15:37:26] task [xgboost.dask]:tcp://127.0.0.1:33439 got new rank 0
[15:37:27] task [xgboost.dask]:tcp://127.0.0.1:33439 got new rank 0
[15:37:29] task [xgboost.dask]:tcp://127.0.0.1:33439 got new rank 0
[15:37:30] task [xgboost.dask]:tcp://127.0.0.1:33439 got new rank 0
[15:37:31] task [xgboost.dask]:tcp://127.0.0.1:33439 got new rank 0
[15:37:32] task [xgboost.dask]:tcp://127.0.0.1:33439 got new rank 0
[15:37:34] task [xgboost.dask]:tcp://127.0.0.1:33439 got new rank 0
[15:37:35] task [xgboost.dask]:tcp://127.0.0.1:33439 got new rank 0
[15:37:36] task [xgboost.dask]:tcp://127.0.0.1:33439 got new rank 0
[15:37:38] task [xgboost.dask]:tcp://127.0.0.1:33439 got new rank 0
[15:37:39] task [xgboost.dask]:tcp://127.0.0.1:33439 got new rank 0
[15:37:40] task [xgboost.dask]:tcp://127.0.0.1:33439 got new rank 0
[15:37:41] task [xgboost.dask]:tcp://127.0.0.1:33439 got new rank 0
[15:37:43] task [xgboost.dask]:tcp://127.0.0.1:33439 got new rank 0
[15:37:44] task [xgboost.dask]:tcp://127.0.0.1:33439 got new rank 0
[15:37:45] task [xgboost.dask]:tcp://127.0.0.1:33439 got new rank 0
[15:37:46] task [xgboost.dask]:tcp://127.0.0.1:33439 got new rank 0
[15:37:48] task [xgboost.dask]:tcp://127.0.0.1:33439 got new rank 0
[15:37:49] task [xgboost.dask]:tcp://127.0.0.1:33439 got new rank 0
[15:37:50] task [xgboost.dask]:tcp://127.0.0.1:33439 got new rank 0
[15:37:52] task [xgboost.dask]:tcp://127.0.0.1:33439 got new rank 0
[15:37:53] task [xgboost.dask]:tcp://127.0.0.1:33439 got new rank 0
[15:37:54] task [xgboost.dask]:tcp://127.0.0.1:33439 got new rank 0
[15:37:56] task [xgboost.dask]:tcp://127.0.0.1:33439 got new rank 0
[15:37:57] task [xgboost.dask]:tcp://127.0.0.1:33439 got new rank 0
[15:37:58] task [xgboost.dask]:tcp://127.0.0.1:33439 got new rank 0
[15:37:59] task [xgboost.dask]:tcp://127.0.0.1:33439 got new rank 0
[15:38:00] task [xgboost.dask]:tcp://127.0.0.1:33439 got new rank 0
[15:38:02] task [xgboost.dask]:tcp://127.0.0.1:33439 got new rank 0
[15:38:03] task [xgboost.dask]:tcp://127.0.0.1:33439 got new rank 0
[15:38:04] task [xgboost.dask]:tcp://127.0.0.1:33439 got new rank 0
[15:38:06] task [xgboost.dask]:tcp://127.0.0.1:33439 got new rank 0
[15:38:07] task [xgboost.dask]:tcp://127.0.0.1:33439 got new rank 0
[15:38:08] task [xgboost.dask]:tcp://127.0.0.1:33439 got new rank 0
[15:38:10] task [xgboost.dask]:tcp://127.0.0.1:33439 got new rank 0
[15:38:11] task [xgboost.dask]:tcp://127.0.0.1:33439 got new rank 0
[15:38:12] task [xgboost.dask]:tcp://127.0.0.1:33439 got new rank 0
[15:38:13] task [xgboost.dask]:tcp://127.0.0.1:33439 got new rank 0
[15:38:15] task [xgboost.dask]:tcp://127.0.0.1:33439 got new rank 0
[15:38:16] task [xgboost.dask]:tcp://127.0.0.1:33439 got new rank 0
[15:38:17] task [xgboost.dask]:tcp://127.0.0.1:33439 got new rank 0
[15:38:19] task [xgboost.dask]:tcp://127.0.0.1:33439 got new rank 0
[15:38:20] task [xgboost.dask]:tcp://127.0.0.1:33439 got new rank 0
[15:38:21] task [xgboost.dask]:tcp://127.0.0.1:33439 got new rank 0
[15:38:22] task [xgboost.dask]:tcp://127.0.0.1:33439 got new rank 0
[15:38:24] task [xgboost.dask]:tcp://127.0.0.1:33439 got new rank 0
[15:38:25] task [xgboost.dask]:tcp://127.0.0.1:33439 got new rank 0
[15:38:26] task [xgboost.dask]:tcp://127.0.0.1:33439 got new rank 0
[15:38:28] task [xgboost.dask]:tcp://127.0.0.1:33439 got new rank 0
[15:38:29] task [xgboost.dask]:tcp://127.0.0.1:33439 got new rank 0
[15:38:30] task [xgboost.dask]:tcp://127.0.0.1:33439 got new rank 0
[15:38:31] task [xgboost.dask]:tcp://127.0.0.1:33439 got new rank 0
[15:38:33] task [xgboost.dask]:tcp://127.0.0.1:33439 got new rank 0
[15:38:34] task [xgboost.dask]:tcp://127.0.0.1:33439 got new rank 0
[15:38:35] task [xgboost.dask]:tcp://127.0.0.1:33439 got new rank 0
[15:38:36] task [xgboost.dask]:tcp://127.0.0.1:33439 got new rank 0
[15:38:38] task [xgboost.dask]:tcp://127.0.0.1:33439 got new rank 0
[15:38:39] task [xgboost.dask]:tcp://127.0.0.1:33439 got new rank 0
[15:38:40] task [xgboost.dask]:tcp://127.0.0.1:33439 got new rank 0
[15:38:42] task [xgboost.dask]:tcp://127.0.0.1:33439 got new rank 0
[15:38:43] task [xgboost.dask]:tcp://127.0.0.1:33439 got new rank 0
[15:38:44] task [xgboost.dask]:tcp://127.0.0.1:33439 got new rank 0
[15:38:45] task [xgboost.dask]:tcp://127.0.0.1:33439 got new rank 0
[15:38:47] task [xgboost.dask]:tcp://127.0.0.1:33439 got new rank 0
[15:38:48] task [xgboost.dask]:tcp://127.0.0.1:33439 got new rank 0
[15:38:49] task [xgboost.dask]:tcp://127.0.0.1:33439 got new rank 0
[15:38:50] task [xgboost.dask]:tcp://127.0.0.1:33439 got new rank 0
[15:38:52] task [xgboost.dask]:tcp://127.0.0.1:33439 got new rank 0
[15:38:53] task [xgboost.dask]:tcp://127.0.0.1:33439 got new rank 0
[15:38:54] task [xgboost.dask]:tcp://127.0.0.1:33439 got new rank 0
[15:38:56] task [xgboost.dask]:tcp://127.0.0.1:33439 got new rank 0
[15:38:57] task [xgboost.dask]:tcp://127.0.0.1:33439 got new rank 0
[15:38:58] task [xgboost.dask]:tcp://127.0.0.1:33439 got new rank 0
[15:38:59] task [xgboost.dask]:tcp://127.0.0.1:33439 got new rank 0
[15:39:01] task [xgboost.dask]:tcp://127.0.0.1:33439 got new rank 0
[15:39:02] task [xgboost.dask]:tcp://127.0.0.1:33439 got new rank 0
[15:39:03] task [xgboost.dask]:tcp://127.0.0.1:33439 got new rank 0
[15:39:05] task [xgboost.dask]:tcp://127.0.0.1:33439 got new rank 0
[15:39:06] task [xgboost.dask]:tcp://127.0.0.1:33439 got new rank 0
[15:39:07] task [xgboost.dask]:tcp://127.0.0.1:33439 got new rank 0
[15:39:08] task [xgboost.dask]:tcp://127.0.0.1:33439 got new rank 0
[15:39:10] task [xgboost.dask]:tcp://127.0.0.1:33439 got new rank 0
[15:39:11] task [xgboost.dask]:tcp://127.0.0.1:33439 got new rank 0
[15:39:12] task [xgboost.dask]:tcp://127.0.0.1:33439 got new rank 0
[15:39:14] task [xgboost.dask]:tcp://127.0.0.1:33439 got new rank 0
[15:39:15] task [xgboost.dask]:tcp://127.0.0.1:33439 got new rank 0
[15:39:16] task [xgboost.dask]:tcp://127.0.0.1:33439 got new rank 0
[15:39:17] task [xgboost.dask]:tcp://127.0.0.1:33439 got new rank 0
[15:39:18] task [xgboost.dask]:tcp://127.0.0.1:33439 got new rank 0
[15:39:20] task [xgboost.dask]:tcp://127.0.0.1:33439 got new rank 0
[15:39:21] task [xgboost.dask]:tcp://127.0.0.1:33439 got new rank 0
[15:39:23] task [xgboost.dask]:tcp://127.0.0.1:33439 got new rank 0
[15:39:24] task [xgboost.dask]:tcp://127.0.0.1:33439 got new rank 0
[15:39:25] task [xgboost.dask]:tcp://127.0.0.1:33439 got new rank 0
[15:39:26] task [xgboost.dask]:tcp://127.0.0.1:33439 got new rank 0
[15:39:27] task [xgboost.dask]:tcp://127.0.0.1:33439 got new rank 0
[15:39:29] task [xgboost.dask]:tcp://127.0.0.1:33439 got new rank 0
[15:39:30] task [xgboost.dask]:tcp://127.0.0.1:33439 got new rank 0
[15:39:32] task [xgboost.dask]:tcp://127.0.0.1:33439 got new rank 0
[15:39:33] task [xgboost.dask]:tcp://127.0.0.1:33439 got new rank 0
[15:39:34] task [xgboost.dask]:tcp://127.0.0.1:33439 got new rank 0
[15:39:35] task [xgboost.dask]:tcp://127.0.0.1:33439 got new rank 0
[15:39:36] task [xgboost.dask]:tcp://127.0.0.1:33439 got new rank 0
[15:39:38] task [xgboost.dask]:tcp://127.0.0.1:33439 got new rank 0
[15:39:39] task [xgboost.dask]:tcp://127.0.0.1:33439 got new rank 0
[15:39:40] task [xgboost.dask]:tcp://127.0.0.1:33439 got new rank 0
[15:39:42] task [xgboost.dask]:tcp://127.0.0.1:33439 got new rank 0
[15:39:43] task [xgboost.dask]:tcp://127.0.0.1:33439 got new rank 0
[15:39:44] task [xgboost.dask]:tcp://127.0.0.1:33439 got new rank 0
[15:39:45] task [xgboost.dask]:tcp://127.0.0.1:33439 got new rank 0
[15:39:47] task [xgboost.dask]:tcp://127.0.0.1:33439 got new rank 0
[15:39:48] task [xgboost.dask]:tcp://127.0.0.1:33439 got new rank 0
[15:39:49] task [xgboost.dask]:tcp://127.0.0.1:33439 got new rank 0
[15:39:51] task [xgboost.dask]:tcp://127.0.0.1:33439 got new rank 0
[15:39:52] task [xgboost.dask]:tcp://127.0.0.1:33439 got new rank 0
[15:39:53] task [xgboost.dask]:tcp://127.0.0.1:33439 got new rank 0
[15:39:54] task [xgboost.dask]:tcp://127.0.0.1:33439 got new rank 0
[15:39:55] task [xgboost.dask]:tcp://127.0.0.1:33439 got new rank 0
[15:39:57] task [xgboost.dask]:tcp://127.0.0.1:33439 got new rank 0
[15:39:58] task [xgboost.dask]:tcp://127.0.0.1:33439 got new rank 0
[15:39:59] task [xgboost.dask]:tcp://127.0.0.1:33439 got new rank 0
[15:40:01] task [xgboost.dask]:tcp://127.0.0.1:33439 got new rank 0
[15:40:02] task [xgboost.dask]:tcp://127.0.0.1:33439 got new rank 0
[15:40:03] task [xgboost.dask]:tcp://127.0.0.1:33439 got new rank 0
[15:40:04] task [xgboost.dask]:tcp://127.0.0.1:33439 got new rank 0
[15:40:06] task [xgboost.dask]:tcp://127.0.0.1:33439 got new rank 0
[15:40:07] task [xgboost.dask]:tcp://127.0.0.1:33439 got new rank 0
[15:40:08] task [xgboost.dask]:tcp://127.0.0.1:33439 got new rank 0
[15:40:09] task [xgboost.dask]:tcp://127.0.0.1:33439 got new rank 0
[15:40:11] task [xgboost.dask]:tcp://127.0.0.1:33439 got new rank 0
[15:40:12] task [xgboost.dask]:tcp://127.0.0.1:33439 got new rank 0
[15:40:13] task [xgboost.dask]:tcp://127.0.0.1:33439 got new rank 0
[15:40:15] task [xgboost.dask]:tcp://127.0.0.1:33439 got new rank 0
[15:40:16] task [xgboost.dask]:tcp://127.0.0.1:33439 got new rank 0
[15:40:17] task [xgboost.dask]:tcp://127.0.0.1:33439 got new rank 0
[15:40:18] task [xgboost.dask]:tcp://127.0.0.1:33439 got new rank 0
[15:40:20] task [xgboost.dask]:tcp://127.0.0.1:33439 got new rank 0
[15:40:21] task [xgboost.dask]:tcp://127.0.0.1:33439 got new rank 0
[15:40:23] task [xgboost.dask]:tcp://127.0.0.1:33439 got new rank 0
[15:40:24] task [xgboost.dask]:tcp://127.0.0.1:33439 got new rank 0
[15:40:25] task [xgboost.dask]:tcp://127.0.0.1:33439 got new rank 0
[15:40:26] task [xgboost.dask]:tcp://127.0.0.1:33439 got new rank 0
[15:40:28] task [xgboost.dask]:tcp://127.0.0.1:33439 got new rank 0
[15:40:29] task [xgboost.dask]:tcp://127.0.0.1:33439 got new rank 0
[15:40:30] task [xgboost.dask]:tcp://127.0.0.1:33439 got new rank 0
[15:40:31] task [xgboost.dask]:tcp://127.0.0.1:33439 got new rank 0
[15:40:33] task [xgboost.dask]:tcp://127.0.0.1:33439 got new rank 0
[15:40:34] task [xgboost.dask]:tcp://127.0.0.1:33439 got new rank 0
[15:40:35] task [xgboost.dask]:tcp://127.0.0.1:33439 got new rank 0
[15:40:37] task [xgboost.dask]:tcp://127.0.0.1:33439 got new rank 0
[15:40:38] task [xgboost.dask]:tcp://127.0.0.1:33439 got new rank 0
[15:40:39] task [xgboost.dask]:tcp://127.0.0.1:33439 got new rank 0
[15:40:40] task [xgboost.dask]:tcp://127.0.0.1:33439 got new rank 0
[15:40:41] task [xgboost.dask]:tcp://127.0.0.1:33439 got new rank 0
[15:40:43] task [xgboost.dask]:tcp://127.0.0.1:33439 got new rank 0
[15:40:44] task [xgboost.dask]:tcp://127.0.0.1:33439 got new rank 0
[15:40:45] task [xgboost.dask]:tcp://127.0.0.1:33439 got new rank 0
[15:40:46] task [xgboost.dask]:tcp://127.0.0.1:33439 got new rank 0
[15:40:48] task [xgboost.dask]:tcp://127.0.0.1:33439 got new rank 0
[15:40:49] task [xgboost.dask]:tcp://127.0.0.1:33439 got new rank 0
[15:40:50] task [xgboost.dask]:tcp://127.0.0.1:33439 got new rank 0
[15:40:52] task [xgboost.dask]:tcp://127.0.0.1:33439 got new rank 0
[15:40:53] task [xgboost.dask]:tcp://127.0.0.1:33439 got new rank 0
[15:40:54] task [xgboost.dask]:tcp://127.0.0.1:33439 got new rank 0
[15:40:55] task [xgboost.dask]:tcp://127.0.0.1:33439 got new rank 0
[15:40:57] task [xgboost.dask]:tcp://127.0.0.1:33439 got new rank 0
[15:40:58] task [xgboost.dask]:tcp://127.0.0.1:33439 got new rank 0
[15:40:59] task [xgboost.dask]:tcp://127.0.0.1:33439 got new rank 0
[15:41:01] task [xgboost.dask]:tcp://127.0.0.1:33439 got new rank 0
[15:41:02] task [xgboost.dask]:tcp://127.0.0.1:33439 got new rank 0
[15:41:03] task [xgboost.dask]:tcp://127.0.0.1:33439 got new rank 0
[15:41:04] task [xgboost.dask]:tcp://127.0.0.1:33439 got new rank 0
[15:41:06] task [xgboost.dask]:tcp://127.0.0.1:33439 got new rank 0
[15:41:07] task [xgboost.dask]:tcp://127.0.0.1:33439 got new rank 0
[15:41:08] task [xgboost.dask]:tcp://127.0.0.1:33439 got new rank 0
[15:41:10] task [xgboost.dask]:tcp://127.0.0.1:33439 got new rank 0
[15:41:11] task [xgboost.dask]:tcp://127.0.0.1:33439 got new rank 0
[15:41:12] task [xgboost.dask]:tcp://127.0.0.1:33439 got new rank 0
[15:41:13] task [xgboost.dask]:tcp://127.0.0.1:33439 got new rank 0
[15:41:15] task [xgboost.dask]:tcp://127.0.0.1:33439 got new rank 0
[15:41:16] task [xgboost.dask]:tcp://127.0.0.1:33439 got new rank 0
[15:41:17] task [xgboost.dask]:tcp://127.0.0.1:33439 got new rank 0
[15:41:18] task [xgboost.dask]:tcp://127.0.0.1:33439 got new rank 0
[15:41:20] task [xgboost.dask]:tcp://127.0.0.1:33439 got new rank 0
[15:41:21] task [xgboost.dask]:tcp://127.0.0.1:33439 got new rank 0
[15:41:22] task [xgboost.dask]:tcp://127.0.0.1:33439 got new rank 0
[15:41:24] task [xgboost.dask]:tcp://127.0.0.1:33439 got new rank 0
[15:41:25] task [xgboost.dask]:tcp://127.0.0.1:33439 got new rank 0
[15:41:26] task [xgboost.dask]:tcp://127.0.0.1:33439 got new rank 0
[15:41:27] task [xgboost.dask]:tcp://127.0.0.1:33439 got new rank 0
[15:41:29] task [xgboost.dask]:tcp://127.0.0.1:33439 got new rank 0
[15:41:30] task [xgboost.dask]:tcp://127.0.0.1:33439 got new rank 0
[15:41:31] task [xgboost.dask]:tcp://127.0.0.1:33439 got new rank 0
[15:41:32] task [xgboost.dask]:tcp://127.0.0.1:33439 got new rank 0
[15:41:34] task [xgboost.dask]:tcp://127.0.0.1:33439 got new rank 0
[15:41:35] task [xgboost.dask]:tcp://127.0.0.1:33439 got new rank 0
[15:41:36] task [xgboost.dask]:tcp://127.0.0.1:33439 got new rank 0
[15:41:38] task [xgboost.dask]:tcp://127.0.0.1:33439 got new rank 0
[15:41:39] task [xgboost.dask]:tcp://127.0.0.1:33439 got new rank 0
[15:41:40] task [xgboost.dask]:tcp://127.0.0.1:33439 got new rank 0
[15:41:41] task [xgboost.dask]:tcp://127.0.0.1:33439 got new rank 0
[15:41:43] task [xgboost.dask]:tcp://127.0.0.1:33439 got new rank 0
[15:41:44] task [xgboost.dask]:tcp://127.0.0.1:33439 got new rank 0
[15:41:45] task [xgboost.dask]:tcp://127.0.0.1:33439 got new rank 0
[15:41:47] task [xgboost.dask]:tcp://127.0.0.1:33439 got new rank 0
[15:41:48] task [xgboost.dask]:tcp://127.0.0.1:33439 got new rank 0
[15:41:49] task [xgboost.dask]:tcp://127.0.0.1:33439 got new rank 0
[15:41:51] task [xgboost.dask]:tcp://127.0.0.1:33439 got new rank 0
[15:41:52] task [xgboost.dask]:tcp://127.0.0.1:33439 got new rank 0
[15:41:53] task [xgboost.dask]:tcp://127.0.0.1:33439 got new rank 0
[15:41:54] task [xgboost.dask]:tcp://127.0.0.1:33439 got new rank 0
[15:41:55] task [xgboost.dask]:tcp://127.0.0.1:33439 got new rank 0
[15:41:57] task [xgboost.dask]:tcp://127.0.0.1:33439 got new rank 0
[15:41:58] task [xgboost.dask]:tcp://127.0.0.1:33439 got new rank 0
[15:41:59] task [xgboost.dask]:tcp://127.0.0.1:33439 got new rank 0
[15:42:00] task [xgboost.dask]:tcp://127.0.0.1:33439 got new rank 0
[15:42:02] task [xgboost.dask]:tcp://127.0.0.1:33439 got new rank 0
[15:42:03] task [xgboost.dask]:tcp://127.0.0.1:33439 got new rank 0
[15:42:05] task [xgboost.dask]:tcp://127.0.0.1:33439 got new rank 0
[15:42:06] task [xgboost.dask]:tcp://127.0.0.1:33439 got new rank 0
[15:42:07] task [xgboost.dask]:tcp://127.0.0.1:33439 got new rank 0
[15:42:08] task [xgboost.dask]:tcp://127.0.0.1:33439 got new rank 0
[15:42:10] task [xgboost.dask]:tcp://127.0.0.1:33439 got new rank 0
[15:42:11] task [xgboost.dask]:tcp://127.0.0.1:33439 got new rank 0
[15:42:12] task [xgboost.dask]:tcp://127.0.0.1:33439 got new rank 0
[15:42:13] task [xgboost.dask]:tcp://127.0.0.1:33439 got new rank 0
[15:42:14] task [xgboost.dask]:tcp://127.0.0.1:33439 got new rank 0
[15:42:16] task [xgboost.dask]:tcp://127.0.0.1:33439 got new rank 0
[15:42:17] task [xgboost.dask]:tcp://127.0.0.1:33439 got new rank 0
[15:42:19] task [xgboost.dask]:tcp://127.0.0.1:33439 got new rank 0
[15:42:20] task [xgboost.dask]:tcp://127.0.0.1:33439 got new rank 0
[15:42:21] task [xgboost.dask]:tcp://127.0.0.1:33439 got new rank 0
[15:42:22] task [xgboost.dask]:tcp://127.0.0.1:33439 got new rank 0
[15:42:24] task [xgboost.dask]:tcp://127.0.0.1:33439 got new rank 0
[15:42:25] task [xgboost.dask]:tcp://127.0.0.1:33439 got new rank 0
[15:42:26] task [xgboost.dask]:tcp://127.0.0.1:33439 got new rank 0
[15:42:27] task [xgboost.dask]:tcp://127.0.0.1:33439 got new rank 0
[15:42:29] task [xgboost.dask]:tcp://127.0.0.1:33439 got new rank 0
[15:42:30] task [xgboost.dask]:tcp://127.0.0.1:33439 got new rank 0
[15:42:31] task [xgboost.dask]:tcp://127.0.0.1:33439 got new rank 0
[15:42:33] task [xgboost.dask]:tcp://127.0.0.1:33439 got new rank 0
[15:42:34] task [xgboost.dask]:tcp://127.0.0.1:33439 got new rank 0
[15:42:35] task [xgboost.dask]:tcp://127.0.0.1:33439 got new rank 0
[15:42:36] task [xgboost.dask]:tcp://127.0.0.1:33439 got new rank 0
[15:42:37] task [xgboost.dask]:tcp://127.0.0.1:33439 got new rank 0
[15:42:39] task [xgboost.dask]:tcp://127.0.0.1:33439 got new rank 0
[15:42:40] task [xgboost.dask]:tcp://127.0.0.1:33439 got new rank 0
[15:42:42] task [xgboost.dask]:tcp://127.0.0.1:33439 got new rank 0
[15:42:43] task [xgboost.dask]:tcp://127.0.0.1:33439 got new rank 0
[15:42:44] task [xgboost.dask]:tcp://127.0.0.1:33439 got new rank 0
[15:42:45] task [xgboost.dask]:tcp://127.0.0.1:33439 got new rank 0
[15:42:47] task [xgboost.dask]:tcp://127.0.0.1:33439 got new rank 0
[15:42:48] task [xgboost.dask]:tcp://127.0.0.1:33439 got new rank 0
[15:42:49] task [xgboost.dask]:tcp://127.0.0.1:33439 got new rank 0
[15:42:50] task [xgboost.dask]:tcp://127.0.0.1:33439 got new rank 0
[15:42:52] task [xgboost.dask]:tcp://127.0.0.1:33439 got new rank 0
[15:42:53] task [xgboost.dask]:tcp://127.0.0.1:33439 got new rank 0
[15:42:54] task [xgboost.dask]:tcp://127.0.0.1:33439 got new rank 0
[15:42:55] task [xgboost.dask]:tcp://127.0.0.1:33439 got new rank 0
[15:42:57] task [xgboost.dask]:tcp://127.0.0.1:33439 got new rank 0
[15:42:58] task [xgboost.dask]:tcp://127.0.0.1:33439 got new rank 0
[15:42:59] task [xgboost.dask]:tcp://127.0.0.1:33439 got new rank 0
[15:43:01] task [xgboost.dask]:tcp://127.0.0.1:33439 got new rank 0
[15:43:02] task [xgboost.dask]:tcp://127.0.0.1:33439 got new rank 0
[15:43:03] task [xgboost.dask]:tcp://127.0.0.1:33439 got new rank 0
[15:43:04] task [xgboost.dask]:tcp://127.0.0.1:33439 got new rank 0
[15:43:06] task [xgboost.dask]:tcp://127.0.0.1:33439 got new rank 0
[15:43:07] task [xgboost.dask]:tcp://127.0.0.1:33439 got new rank 0
[15:43:08] task [xgboost.dask]:tcp://127.0.0.1:33439 got new rank 0
[15:43:09] task [xgboost.dask]:tcp://127.0.0.1:33439 got new rank 0
[15:43:11] task [xgboost.dask]:tcp://127.0.0.1:33439 got new rank 0
[15:43:12] task [xgboost.dask]:tcp://127.0.0.1:33439 got new rank 0
[15:43:14] task [xgboost.dask]:tcp://127.0.0.1:33439 got new rank 0
[15:43:15] task [xgboost.dask]:tcp://127.0.0.1:33439 got new rank 0
[15:43:16] task [xgboost.dask]:tcp://127.0.0.1:33439 got new rank 0
[15:43:17] task [xgboost.dask]:tcp://127.0.0.1:33439 got new rank 0
[15:43:19] task [xgboost.dask]:tcp://127.0.0.1:33439 got new rank 0
[15:43:20] task [xgboost.dask]:tcp://127.0.0.1:33439 got new rank 0
[15:43:21] task [xgboost.dask]:tcp://127.0.0.1:33439 got new rank 0
[15:43:22] task [xgboost.dask]:tcp://127.0.0.1:33439 got new rank 0
[15:43:23] task [xgboost.dask]:tcp://127.0.0.1:33439 got new rank 0
[15:43:25] task [xgboost.dask]:tcp://127.0.0.1:33439 got new rank 0
[15:43:26] task [xgboost.dask]:tcp://127.0.0.1:33439 got new rank 0
[15:43:28] task [xgboost.dask]:tcp://127.0.0.1:33439 got new rank 0
[15:43:29] task [xgboost.dask]:tcp://127.0.0.1:33439 got new rank 0
[15:43:30] task [xgboost.dask]:tcp://127.0.0.1:33439 got new rank 0
[15:43:31] task [xgboost.dask]:tcp://127.0.0.1:33439 got new rank 0
[15:43:33] task [xgboost.dask]:tcp://127.0.0.1:33439 got new rank 0
[15:43:34] task [xgboost.dask]:tcp://127.0.0.1:33439 got new rank 0
[15:43:35] task [xgboost.dask]:tcp://127.0.0.1:33439 got new rank 0
[15:43:36] task [xgboost.dask]:tcp://127.0.0.1:33439 got new rank 0
[15:43:38] task [xgboost.dask]:tcp://127.0.0.1:33439 got new rank 0
[15:43:39] task [xgboost.dask]:tcp://127.0.0.1:33439 got new rank 0
[15:43:45] task [xgboost.dask]:tcp://127.0.0.1:33439 got new rank 0
[15:43:46] task [xgboost.dask]:tcp://127.0.0.1:33439 got new rank 0
[15:43:47] task [xgboost.dask]:tcp://127.0.0.1:33439 got new rank 0
[15:43:48] task [xgboost.dask]:tcp://127.0.0.1:33439 got new rank 0
[15:43:50] task [xgboost.dask]:tcp://127.0.0.1:33439 got new rank 0
[15:43:51] task [xgboost.dask]:tcp://127.0.0.1:33439 got new rank 0
[15:43:52] task [xgboost.dask]:tcp://127.0.0.1:33439 got new rank 0
[15:43:54] task [xgboost.dask]:tcp://127.0.0.1:33439 got new rank 0
[15:43:55] task [xgboost.dask]:tcp://127.0.0.1:33439 got new rank 0
[15:43:56] task [xgboost.dask]:tcp://127.0.0.1:33439 got new rank 0
[15:43:57] task [xgboost.dask]:tcp://127.0.0.1:33439 got new rank 0
[15:43:59] task [xgboost.dask]:tcp://127.0.0.1:33439 got new rank 0
[15:44:00] task [xgboost.dask]:tcp://127.0.0.1:33439 got new rank 0
[15:44:01] task [xgboost.dask]:tcp://127.0.0.1:33439 got new rank 0
[15:44:03] task [xgboost.dask]:tcp://127.0.0.1:33439 got new rank 0
[15:44:04] task [xgboost.dask]:tcp://127.0.0.1:33439 got new rank 0
[15:44:05] task [xgboost.dask]:tcp://127.0.0.1:33439 got new rank 0
[15:44:06] task [xgboost.dask]:tcp://127.0.0.1:33439 got new rank 0
[15:44:08] task [xgboost.dask]:tcp://127.0.0.1:33439 got new rank 0
[15:44:09] task [xgboost.dask]:tcp://127.0.0.1:33439 got new rank 0
[15:44:10] task [xgboost.dask]:tcp://127.0.0.1:33439 got new rank 0
[15:44:11] task [xgboost.dask]:tcp://127.0.0.1:33439 got new rank 0
[15:44:13] task [xgboost.dask]:tcp://127.0.0.1:33439 got new rank 0
[15:44:14] task [xgboost.dask]:tcp://127.0.0.1:33439 got new rank 0
[15:44:15] task [xgboost.dask]:tcp://127.0.0.1:33439 got new rank 0
[15:44:17] task [xgboost.dask]:tcp://127.0.0.1:33439 got new rank 0
[15:44:18] task [xgboost.dask]:tcp://127.0.0.1:33439 got new rank 0
[15:44:19] task [xgboost.dask]:tcp://127.0.0.1:33439 got new rank 0
[15:44:21] task [xgboost.dask]:tcp://127.0.0.1:33439 got new rank 0
[15:44:22] task [xgboost.dask]:tcp://127.0.0.1:33439 got new rank 0
[15:44:23] task [xgboost.dask]:tcp://127.0.0.1:33439 got new rank 0
[15:44:24] task [xgboost.dask]:tcp://127.0.0.1:33439 got new rank 0
[15:44:26] task [xgboost.dask]:tcp://127.0.0.1:33439 got new rank 0
[15:44:27] task [xgboost.dask]:tcp://127.0.0.1:33439 got new rank 0
[15:44:28] task [xgboost.dask]:tcp://127.0.0.1:33439 got new rank 0
[15:44:29] task [xgboost.dask]:tcp://127.0.0.1:33439 got new rank 0
[15:44:31] task [xgboost.dask]:tcp://127.0.0.1:33439 got new rank 0
[15:44:32] task [xgboost.dask]:tcp://127.0.0.1:33439 got new rank 0
[15:44:33] task [xgboost.dask]:tcp://127.0.0.1:33439 got new rank 0
[15:44:35] task [xgboost.dask]:tcp://127.0.0.1:33439 got new rank 0
[15:44:36] task [xgboost.dask]:tcp://127.0.0.1:33439 got new rank 0
[15:44:37] task [xgboost.dask]:tcp://127.0.0.1:33439 got new rank 0
[15:44:39] task [xgboost.dask]:tcp://127.0.0.1:33439 got new rank 0
[15:44:40] task [xgboost.dask]:tcp://127.0.0.1:33439 got new rank 0
[15:44:41] task [xgboost.dask]:tcp://127.0.0.1:33439 got new rank 0
[15:44:42] task [xgboost.dask]:tcp://127.0.0.1:33439 got new rank 0
[15:44:44] task [xgboost.dask]:tcp://127.0.0.1:33439 got new rank 0
[15:44:45] task [xgboost.dask]:tcp://127.0.0.1:33439 got new rank 0
[15:44:46] task [xgboost.dask]:tcp://127.0.0.1:33439 got new rank 0
[15:44:47] task [xgboost.dask]:tcp://127.0.0.1:33439 got new rank 0
[15:44:49] task [xgboost.dask]:tcp://127.0.0.1:33439 got new rank 0
[15:44:50] task [xgboost.dask]:tcp://127.0.0.1:33439 got new rank 0
[15:44:51] task [xgboost.dask]:tcp://127.0.0.1:33439 got new rank 0
[15:44:53] task [xgboost.dask]:tcp://127.0.0.1:33439 got new rank 0
[15:44:54] task [xgboost.dask]:tcp://127.0.0.1:33439 got new rank 0
[15:44:55] task [xgboost.dask]:tcp://127.0.0.1:33439 got new rank 0
[15:44:56] task [xgboost.dask]:tcp://127.0.0.1:33439 got new rank 0
[15:44:58] task [xgboost.dask]:tcp://127.0.0.1:33439 got new rank 0
[15:44:59] task [xgboost.dask]:tcp://127.0.0.1:33439 got new rank 0
[15:45:00] task [xgboost.dask]:tcp://127.0.0.1:33439 got new rank 0
[15:45:02] task [xgboost.dask]:tcp://127.0.0.1:33439 got new rank 0
[15:45:03] task [xgboost.dask]:tcp://127.0.0.1:33439 got new rank 0
[15:45:04] task [xgboost.dask]:tcp://127.0.0.1:33439 got new rank 0
[15:45:05] task [xgboost.dask]:tcp://127.0.0.1:33439 got new rank 0
[15:45:07] task [xgboost.dask]:tcp://127.0.0.1:33439 got new rank 0
[15:45:08] task [xgboost.dask]:tcp://127.0.0.1:33439 got new rank 0
[15:45:09] task [xgboost.dask]:tcp://127.0.0.1:33439 got new rank 0
[15:45:11] task [xgboost.dask]:tcp://127.0.0.1:33439 got new rank 0
[15:45:12] task [xgboost.dask]:tcp://127.0.0.1:33439 got new rank 0
[15:45:13] task [xgboost.dask]:tcp://127.0.0.1:33439 got new rank 0
[15:45:14] task [xgboost.dask]:tcp://127.0.0.1:33439 got new rank 0
[15:45:16] task [xgboost.dask]:tcp://127.0.0.1:33439 got new rank 0
[15:45:17] task [xgboost.dask]:tcp://127.0.0.1:33439 got new rank 0
[15:45:18] task [xgboost.dask]:tcp://127.0.0.1:33439 got new rank 0
[15:45:20] task [xgboost.dask]:tcp://127.0.0.1:33439 got new rank 0
[15:45:21] task [xgboost.dask]:tcp://127.0.0.1:33439 got new rank 0
[15:45:22] task [xgboost.dask]:tcp://127.0.0.1:33439 got new rank 0
[15:45:23] task [xgboost.dask]:tcp://127.0.0.1:33439 got new rank 0
[15:45:25] task [xgboost.dask]:tcp://127.0.0.1:33439 got new rank 0
[15:45:26] task [xgboost.dask]:tcp://127.0.0.1:33439 got new rank 0
[15:45:27] task [xgboost.dask]:tcp://127.0.0.1:33439 got new rank 0
[15:45:28] task [xgboost.dask]:tcp://127.0.0.1:33439 got new rank 0
[15:45:30] task [xgboost.dask]:tcp://127.0.0.1:33439 got new rank 0
[15:45:31] task [xgboost.dask]:tcp://127.0.0.1:33439 got new rank 0
[15:45:32] task [xgboost.dask]:tcp://127.0.0.1:33439 got new rank 0
[15:45:34] task [xgboost.dask]:tcp://127.0.0.1:33439 got new rank 0
[15:45:35] task [xgboost.dask]:tcp://127.0.0.1:33439 got new rank 0
[15:45:36] task [xgboost.dask]:tcp://127.0.0.1:33439 got new rank 0
[15:45:37] task [xgboost.dask]:tcp://127.0.0.1:33439 got new rank 0
[15:45:38] task [xgboost.dask]:tcp://127.0.0.1:33439 got new rank 0
[15:45:40] task [xgboost.dask]:tcp://127.0.0.1:33439 got new rank 0
[15:45:41] task [xgboost.dask]:tcp://127.0.0.1:33439 got new rank 0
[15:45:43] task [xgboost.dask]:tcp://127.0.0.1:33439 got new rank 0
[15:45:44] task [xgboost.dask]:tcp://127.0.0.1:33439 got new rank 0
[15:45:45] task [xgboost.dask]:tcp://127.0.0.1:33439 got new rank 0
[15:45:46] task [xgboost.dask]:tcp://127.0.0.1:33439 got new rank 0
[15:45:48] task [xgboost.dask]:tcp://127.0.0.1:33439 got new rank 0
[15:45:49] task [xgboost.dask]:tcp://127.0.0.1:33439 got new rank 0
[15:45:50] task [xgboost.dask]:tcp://127.0.0.1:33439 got new rank 0
[15:45:52] task [xgboost.dask]:tcp://127.0.0.1:33439 got new rank 0
[15:45:53] task [xgboost.dask]:tcp://127.0.0.1:33439 got new rank 0
[15:45:54] task [xgboost.dask]:tcp://127.0.0.1:33439 got new rank 0
[15:45:55] task [xgboost.dask]:tcp://127.0.0.1:33439 got new rank 0
[15:45:57] task [xgboost.dask]:tcp://127.0.0.1:33439 got new rank 0
[15:45:58] task [xgboost.dask]:tcp://127.0.0.1:33439 got new rank 0
[15:45:59] task [xgboost.dask]:tcp://127.0.0.1:33439 got new rank 0
[15:46:00] task [xgboost.dask]:tcp://127.0.0.1:33439 got new rank 0
[15:46:02] task [xgboost.dask]:tcp://127.0.0.1:33439 got new rank 0
[15:46:03] task [xgboost.dask]:tcp://127.0.0.1:33439 got new rank 0
[15:46:04] task [xgboost.dask]:tcp://127.0.0.1:33439 got new rank 0
[15:46:05] task [xgboost.dask]:tcp://127.0.0.1:33439 got new rank 0
[15:46:07] task [xgboost.dask]:tcp://127.0.0.1:33439 got new rank 0
[15:46:08] task [xgboost.dask]:tcp://127.0.0.1:33439 got new rank 0
[15:46:10] task [xgboost.dask]:tcp://127.0.0.1:33439 got new rank 0
[15:46:11] task [xgboost.dask]:tcp://127.0.0.1:33439 got new rank 0
[15:46:12] task [xgboost.dask]:tcp://127.0.0.1:33439 got new rank 0
[15:46:13] task [xgboost.dask]:tcp://127.0.0.1:33439 got new rank 0
[15:46:14] task [xgboost.dask]:tcp://127.0.0.1:33439 got new rank 0
[15:46:16] task [xgboost.dask]:tcp://127.0.0.1:33439 got new rank 0
[15:46:17] task [xgboost.dask]:tcp://127.0.0.1:33439 got new rank 0
[15:46:19] task [xgboost.dask]:tcp://127.0.0.1:33439 got new rank 0
[15:46:20] task [xgboost.dask]:tcp://127.0.0.1:33439 got new rank 0
[15:46:21] task [xgboost.dask]:tcp://127.0.0.1:33439 got new rank 0
[15:46:22] task [xgboost.dask]:tcp://127.0.0.1:33439 got new rank 0
[15:46:24] task [xgboost.dask]:tcp://127.0.0.1:33439 got new rank 0
[15:46:25] task [xgboost.dask]:tcp://127.0.0.1:33439 got new rank 0
[15:46:26] task [xgboost.dask]:tcp://127.0.0.1:33439 got new rank 0
[15:46:27] task [xgboost.dask]:tcp://127.0.0.1:33439 got new rank 0
[15:46:29] task [xgboost.dask]:tcp://127.0.0.1:33439 got new rank 0
[15:46:30] task [xgboost.dask]:tcp://127.0.0.1:33439 got new rank 0
[15:46:31] task [xgboost.dask]:tcp://127.0.0.1:33439 got new rank 0
[15:46:33] task [xgboost.dask]:tcp://127.0.0.1:33439 got new rank 0
[15:46:34] task [xgboost.dask]:tcp://127.0.0.1:33439 got new rank 0
[15:46:35] task [xgboost.dask]:tcp://127.0.0.1:33439 got new rank 0
[15:46:36] task [xgboost.dask]:tcp://127.0.0.1:33439 got new rank 0
[15:46:38] task [xgboost.dask]:tcp://127.0.0.1:33439 got new rank 0
[15:46:39] task [xgboost.dask]:tcp://127.0.0.1:33439 got new rank 0
[15:46:40] task [xgboost.dask]:tcp://127.0.0.1:33439 got new rank 0
[15:46:42] task [xgboost.dask]:tcp://127.0.0.1:33439 got new rank 0
[15:46:43] task [xgboost.dask]:tcp://127.0.0.1:33439 got new rank 0
[15:46:44] task [xgboost.dask]:tcp://127.0.0.1:33439 got new rank 0
[15:46:45] task [xgboost.dask]:tcp://127.0.0.1:33439 got new rank 0
[15:46:47] task [xgboost.dask]:tcp://127.0.0.1:33439 got new rank 0
[15:46:48] task [xgboost.dask]:tcp://127.0.0.1:33439 got new rank 0
[15:46:49] task [xgboost.dask]:tcp://127.0.0.1:33439 got new rank 0
[15:46:50] task [xgboost.dask]:tcp://127.0.0.1:33439 got new rank 0
[15:46:52] task [xgboost.dask]:tcp://127.0.0.1:33439 got new rank 0
[15:46:53] task [xgboost.dask]:tcp://127.0.0.1:33439 got new rank 0
[15:46:54] task [xgboost.dask]:tcp://127.0.0.1:33439 got new rank 0
[15:46:56] task [xgboost.dask]:tcp://127.0.0.1:33439 got new rank 0
[15:46:57] task [xgboost.dask]:tcp://127.0.0.1:33439 got new rank 0
[15:46:58] task [xgboost.dask]:tcp://127.0.0.1:33439 got new rank 0
[15:46:59] task [xgboost.dask]:tcp://127.0.0.1:33439 got new rank 0
[15:47:01] task [xgboost.dask]:tcp://127.0.0.1:33439 got new rank 0
[15:47:02] task [xgboost.dask]:tcp://127.0.0.1:33439 got new rank 0
[15:47:03] task [xgboost.dask]:tcp://127.0.0.1:33439 got new rank 0
[15:47:04] task [xgboost.dask]:tcp://127.0.0.1:33439 got new rank 0
[15:47:06] task [xgboost.dask]:tcp://127.0.0.1:33439 got new rank 0
[15:47:07] task [xgboost.dask]:tcp://127.0.0.1:33439 got new rank 0
[15:47:08] task [xgboost.dask]:tcp://127.0.0.1:33439 got new rank 0
[15:47:10] task [xgboost.dask]:tcp://127.0.0.1:33439 got new rank 0
[15:47:11] task [xgboost.dask]:tcp://127.0.0.1:33439 got new rank 0
[15:47:12] task [xgboost.dask]:tcp://127.0.0.1:33439 got new rank 0
[15:47:13] task [xgboost.dask]:tcp://127.0.0.1:33439 got new rank 0
[15:47:15] task [xgboost.dask]:tcp://127.0.0.1:33439 got new rank 0
[15:47:16] task [xgboost.dask]:tcp://127.0.0.1:33439 got new rank 0
[15:47:17] task [xgboost.dask]:tcp://127.0.0.1:33439 got new rank 0
[15:47:19] task [xgboost.dask]:tcp://127.0.0.1:33439 got new rank 0
[15:47:20] task [xgboost.dask]:tcp://127.0.0.1:33439 got new rank 0
[15:47:21] task [xgboost.dask]:tcp://127.0.0.1:33439 got new rank 0
[15:47:22] task [xgboost.dask]:tcp://127.0.0.1:33439 got new rank 0
[15:47:24] task [xgboost.dask]:tcp://127.0.0.1:33439 got new rank 0
[15:47:25] task [xgboost.dask]:tcp://127.0.0.1:33439 got new rank 0
[15:47:27] task [xgboost.dask]:tcp://127.0.0.1:33439 got new rank 0
[15:47:28] task [xgboost.dask]:tcp://127.0.0.1:33439 got new rank 0
[15:47:29] task [xgboost.dask]:tcp://127.0.0.1:33439 got new rank 0
[15:47:30] task [xgboost.dask]:tcp://127.0.0.1:33439 got new rank 0
[15:47:31] task [xgboost.dask]:tcp://127.0.0.1:33439 got new rank 0
[15:47:33] task [xgboost.dask]:tcp://127.0.0.1:33439 got new rank 0
[15:47:34] task [xgboost.dask]:tcp://127.0.0.1:33439 got new rank 0
[15:47:35] task [xgboost.dask]:tcp://127.0.0.1:33439 got new rank 0
[15:47:36] task [xgboost.dask]:tcp://127.0.0.1:33439 got new rank 0
[15:47:38] task [xgboost.dask]:tcp://127.0.0.1:33439 got new rank 0
[15:47:39] task [xgboost.dask]:tcp://127.0.0.1:33439 got new rank 0
[15:47:40] task [xgboost.dask]:tcp://127.0.0.1:33439 got new rank 0
[15:47:42] task [xgboost.dask]:tcp://127.0.0.1:33439 got new rank 0
[15:47:43] task [xgboost.dask]:tcp://127.0.0.1:33439 got new rank 0
[15:47:44] task [xgboost.dask]:tcp://127.0.0.1:33439 got new rank 0
[15:47:46] task [xgboost.dask]:tcp://127.0.0.1:33439 got new rank 0
[15:47:47] task [xgboost.dask]:tcp://127.0.0.1:33439 got new rank 0
[15:47:48] task [xgboost.dask]:tcp://127.0.0.1:33439 got new rank 0
[15:47:49] task [xgboost.dask]:tcp://127.0.0.1:33439 got new rank 0
[15:47:51] task [xgboost.dask]:tcp://127.0.0.1:33439 got new rank 0
[15:47:52] task [xgboost.dask]:tcp://127.0.0.1:33439 got new rank 0
[15:47:53] task [xgboost.dask]:tcp://127.0.0.1:33439 got new rank 0
[15:47:55] task [xgboost.dask]:tcp://127.0.0.1:33439 got new rank 0
[15:47:56] task [xgboost.dask]:tcp://127.0.0.1:33439 got new rank 0
[15:47:57] task [xgboost.dask]:tcp://127.0.0.1:33439 got new rank 0
[15:47:58] task [xgboost.dask]:tcp://127.0.0.1:33439 got new rank 0
[15:48:00] task [xgboost.dask]:tcp://127.0.0.1:33439 got new rank 0
[15:48:01] task [xgboost.dask]:tcp://127.0.0.1:33439 got new rank 0
[15:48:02] task [xgboost.dask]:tcp://127.0.0.1:33439 got new rank 0
[15:48:03] task [xgboost.dask]:tcp://127.0.0.1:33439 got new rank 0
[15:48:05] task [xgboost.dask]:tcp://127.0.0.1:33439 got new rank 0
[15:48:06] task [xgboost.dask]:tcp://127.0.0.1:33439 got new rank 0
[15:48:08] task [xgboost.dask]:tcp://127.0.0.1:33439 got new rank 0
[15:48:09] task [xgboost.dask]:tcp://127.0.0.1:33439 got new rank 0
[15:48:10] task [xgboost.dask]:tcp://127.0.0.1:33439 got new rank 0
[15:48:11] task [xgboost.dask]:tcp://127.0.0.1:33439 got new rank 0
[15:48:12] task [xgboost.dask]:tcp://127.0.0.1:33439 got new rank 0
[15:48:14] task [xgboost.dask]:tcp://127.0.0.1:33439 got new rank 0
[15:48:15] task [xgboost.dask]:tcp://127.0.0.1:33439 got new rank 0
[15:48:16] task [xgboost.dask]:tcp://127.0.0.1:33439 got new rank 0
[15:48:17] task [xgboost.dask]:tcp://127.0.0.1:33439 got new rank 0
[15:48:19] task [xgboost.dask]:tcp://127.0.0.1:33439 got new rank 0
[15:48:20] task [xgboost.dask]:tcp://127.0.0.1:33439 got new rank 0
[15:48:21] task [xgboost.dask]:tcp://127.0.0.1:33439 got new rank 0
[15:48:22] task [xgboost.dask]:tcp://127.0.0.1:33439 got new rank 0
[15:48:24] task [xgboost.dask]:tcp://127.0.0.1:33439 got new rank 0
[15:48:25] task [xgboost.dask]:tcp://127.0.0.1:33439 got new rank 0
[15:48:27] task [xgboost.dask]:tcp://127.0.0.1:33439 got new rank 0
[15:48:28] task [xgboost.dask]:tcp://127.0.0.1:33439 got new rank 0
[15:48:29] task [xgboost.dask]:tcp://127.0.0.1:33439 got new rank 0
[15:48:30] task [xgboost.dask]:tcp://127.0.0.1:33439 got new rank 0
[15:48:32] task [xgboost.dask]:tcp://127.0.0.1:33439 got new rank 0
[15:48:33] task [xgboost.dask]:tcp://127.0.0.1:33439 got new rank 0
[15:48:34] task [xgboost.dask]:tcp://127.0.0.1:33439 got new rank 0
[15:48:35] task [xgboost.dask]:tcp://127.0.0.1:33439 got new rank 0
[15:48:37] task [xgboost.dask]:tcp://127.0.0.1:33439 got new rank 0
[15:48:38] task [xgboost.dask]:tcp://127.0.0.1:33439 got new rank 0
[15:48:39] task [xgboost.dask]:tcp://127.0.0.1:33439 got new rank 0
[15:48:41] task [xgboost.dask]:tcp://127.0.0.1:33439 got new rank 0
[15:48:42] task [xgboost.dask]:tcp://127.0.0.1:33439 got new rank 0
[15:48:43] task [xgboost.dask]:tcp://127.0.0.1:33439 got new rank 0
[15:48:44] task [xgboost.dask]:tcp://127.0.0.1:33439 got new rank 0
[15:48:46] task [xgboost.dask]:tcp://127.0.0.1:33439 got new rank 0
[15:48:47] task [xgboost.dask]:tcp://127.0.0.1:33439 got new rank 0
[15:48:48] task [xgboost.dask]:tcp://127.0.0.1:33439 got new rank 0
[15:48:49] task [xgboost.dask]:tcp://127.0.0.1:33439 got new rank 0
[15:48:51] task [xgboost.dask]:tcp://127.0.0.1:33439 got new rank 0
[15:48:52] task [xgboost.dask]:tcp://127.0.0.1:33439 got new rank 0
[15:48:53] task [xgboost.dask]:tcp://127.0.0.1:33439 got new rank 0
[15:48:55] task [xgboost.dask]:tcp://127.0.0.1:33439 got new rank 0
[15:48:56] task [xgboost.dask]:tcp://127.0.0.1:33439 got new rank 0
[15:48:57] task [xgboost.dask]:tcp://127.0.0.1:33439 got new rank 0
[15:48:58] task [xgboost.dask]:tcp://127.0.0.1:33439 got new rank 0
[15:49:00] task [xgboost.dask]:tcp://127.0.0.1:33439 got new rank 0
[15:49:01] task [xgboost.dask]:tcp://127.0.0.1:33439 got new rank 0
[15:49:02] task [xgboost.dask]:tcp://127.0.0.1:33439 got new rank 0
[15:49:03] task [xgboost.dask]:tcp://127.0.0.1:33439 got new rank 0
[15:49:05] task [xgboost.dask]:tcp://127.0.0.1:33439 got new rank 0
[15:49:06] task [xgboost.dask]:tcp://127.0.0.1:33439 got new rank 0
[15:49:08] task [xgboost.dask]:tcp://127.0.0.1:33439 got new rank 0
[15:49:09] task [xgboost.dask]:tcp://127.0.0.1:33439 got new rank 0
[15:49:10] task [xgboost.dask]:tcp://127.0.0.1:33439 got new rank 0
[15:49:11] task [xgboost.dask]:tcp://127.0.0.1:33439 got new rank 0
[15:49:12] task [xgboost.dask]:tcp://127.0.0.1:33439 got new rank 0
[15:49:14] task [xgboost.dask]:tcp://127.0.0.1:33439 got new rank 0
[15:49:15] task [xgboost.dask]:tcp://127.0.0.1:33439 got new rank 0
[15:49:16] task [xgboost.dask]:tcp://127.0.0.1:33439 got new rank 0
[15:49:17] task [xgboost.dask]:tcp://127.0.0.1:33439 got new rank 0
[15:49:19] task [xgboost.dask]:tcp://127.0.0.1:33439 got new rank 0
[15:49:20] task [xgboost.dask]:tcp://127.0.0.1:33439 got new rank 0
[15:49:22] task [xgboost.dask]:tcp://127.0.0.1:33439 got new rank 0
[15:49:23] task [xgboost.dask]:tcp://127.0.0.1:33439 got new rank 0
[15:49:24] task [xgboost.dask]:tcp://127.0.0.1:33439 got new rank 0
[15:49:25] task [xgboost.dask]:tcp://127.0.0.1:33439 got new rank 0
[15:49:27] task [xgboost.dask]:tcp://127.0.0.1:33439 got new rank 0
[15:49:28] task [xgboost.dask]:tcp://127.0.0.1:33439 got new rank 0
[15:49:29] task [xgboost.dask]:tcp://127.0.0.1:33439 got new rank 0
[15:49:30] task [xgboost.dask]:tcp://127.0.0.1:33439 got new rank 0
[15:49:31] task [xgboost.dask]:tcp://127.0.0.1:33439 got new rank 0
[15:49:33] task [xgboost.dask]:tcp://127.0.0.1:33439 got new rank 0
[15:49:34] task [xgboost.dask]:tcp://127.0.0.1:33439 got new rank 0
[15:49:36] task [xgboost.dask]:tcp://127.0.0.1:33439 got new rank 0
[15:49:37] task [xgboost.dask]:tcp://127.0.0.1:33439 got new rank 0
[15:49:38] task [xgboost.dask]:tcp://127.0.0.1:33439 got new rank 0
[15:49:39] task [xgboost.dask]:tcp://127.0.0.1:33439 got new rank 0
[15:49:41] task [xgboost.dask]:tcp://127.0.0.1:33439 got new rank 0
[15:49:42] task [xgboost.dask]:tcp://127.0.0.1:33439 got new rank 0
[15:49:43] task [xgboost.dask]:tcp://127.0.0.1:33439 got new rank 0
[15:49:44] task [xgboost.dask]:tcp://127.0.0.1:33439 got new rank 0
[15:49:46] task [xgboost.dask]:tcp://127.0.0.1:33439 got new rank 0
[15:49:47] task [xgboost.dask]:tcp://127.0.0.1:33439 got new rank 0
[15:49:48] task [xgboost.dask]:tcp://127.0.0.1:33439 got new rank 0
[15:49:50] task [xgboost.dask]:tcp://127.0.0.1:33439 got new rank 0
[15:49:51] task [xgboost.dask]:tcp://127.0.0.1:33439 got new rank 0
[15:49:52] task [xgboost.dask]:tcp://127.0.0.1:33439 got new rank 0
[15:49:53] task [xgboost.dask]:tcp://127.0.0.1:33439 got new rank 0
[15:49:55] task [xgboost.dask]:tcp://127.0.0.1:33439 got new rank 0
[15:49:56] task [xgboost.dask]:tcp://127.0.0.1:33439 got new rank 0
[15:49:57] task [xgboost.dask]:tcp://127.0.0.1:33439 got new rank 0
[15:49:58] task [xgboost.dask]:tcp://127.0.0.1:33439 got new rank 0
[15:50:00] task [xgboost.dask]:tcp://127.0.0.1:33439 got new rank 0
[15:50:01] task [xgboost.dask]:tcp://127.0.0.1:33439 got new rank 0
[15:50:02] task [xgboost.dask]:tcp://127.0.0.1:33439 got new rank 0
[15:50:03] task [xgboost.dask]:tcp://127.0.0.1:33439 got new rank 0
[15:50:05] task [xgboost.dask]:tcp://127.0.0.1:33439 got new rank 0
[15:50:06] task [xgboost.dask]:tcp://127.0.0.1:33439 got new rank 0
[15:50:08] task [xgboost.dask]:tcp://127.0.0.1:33439 got new rank 0
[15:50:09] task [xgboost.dask]:tcp://127.0.0.1:33439 got new rank 0
[15:50:10] task [xgboost.dask]:tcp://127.0.0.1:33439 got new rank 0
[15:50:11] task [xgboost.dask]:tcp://127.0.0.1:33439 got new rank 0
[15:50:13] task [xgboost.dask]:tcp://127.0.0.1:33439 got new rank 0
[15:50:14] task [xgboost.dask]:tcp://127.0.0.1:33439 got new rank 0
[15:50:15] task [xgboost.dask]:tcp://127.0.0.1:33439 got new rank 0
[15:50:16] task [xgboost.dask]:tcp://127.0.0.1:33439 got new rank 0
[15:50:18] task [xgboost.dask]:tcp://127.0.0.1:33439 got new rank 0
[15:50:19] task [xgboost.dask]:tcp://127.0.0.1:33439 got new rank 0
[15:50:20] task [xgboost.dask]:tcp://127.0.0.1:33439 got new rank 0
[15:50:21] task [xgboost.dask]:tcp://127.0.0.1:33439 got new rank 0
[15:50:23] task [xgboost.dask]:tcp://127.0.0.1:33439 got new rank 0
[15:50:24] task [xgboost.dask]:tcp://127.0.0.1:33439 got new rank 0
[15:50:26] task [xgboost.dask]:tcp://127.0.0.1:33439 got new rank 0
[15:50:27] task [xgboost.dask]:tcp://127.0.0.1:33439 got new rank 0
[15:50:28] task [xgboost.dask]:tcp://127.0.0.1:33439 got new rank 0
[15:50:29] task [xgboost.dask]:tcp://127.0.0.1:33439 got new rank 0
[15:50:30] task [xgboost.dask]:tcp://127.0.0.1:33439 got new rank 0
[15:50:32] task [xgboost.dask]:tcp://127.0.0.1:33439 got new rank 0
[15:50:33] task [xgboost.dask]:tcp://127.0.0.1:33439 got new rank 0
[15:50:34] task [xgboost.dask]:tcp://127.0.0.1:33439 got new rank 0
[15:50:35] task [xgboost.dask]:tcp://127.0.0.1:33439 got new rank 0
[15:50:37] task [xgboost.dask]:tcp://127.0.0.1:33439 got new rank 0
[15:50:38] task [xgboost.dask]:tcp://127.0.0.1:33439 got new rank 0
[15:50:40] task [xgboost.dask]:tcp://127.0.0.1:33439 got new rank 0
[15:50:41] task [xgboost.dask]:tcp://127.0.0.1:33439 got new rank 0
[15:50:42] task [xgboost.dask]:tcp://127.0.0.1:33439 got new rank 0
[15:50:43] task [xgboost.dask]:tcp://127.0.0.1:33439 got new rank 0
[15:50:45] task [xgboost.dask]:tcp://127.0.0.1:33439 got new rank 0
[15:50:46] task [xgboost.dask]:tcp://127.0.0.1:33439 got new rank 0
[15:50:47] task [xgboost.dask]:tcp://127.0.0.1:33439 got new rank 0
[15:50:48] task [xgboost.dask]:tcp://127.0.0.1:33439 got new rank 0
[15:50:49] task [xgboost.dask]:tcp://127.0.0.1:33439 got new rank 0
[15:50:51] task [xgboost.dask]:tcp://127.0.0.1:33439 got new rank 0
[15:50:53] task [xgboost.dask]:tcp://127.0.0.1:33439 got new rank 0
[15:50:54] task [xgboost.dask]:tcp://127.0.0.1:33439 got new rank 0
[15:50:55] task [xgboost.dask]:tcp://127.0.0.1:33439 got new rank 0
[15:50:56] task [xgboost.dask]:tcp://127.0.0.1:33439 got new rank 0
[15:50:57] task [xgboost.dask]:tcp://127.0.0.1:33439 got new rank 0
[15:50:59] task [xgboost.dask]:tcp://127.0.0.1:33439 got new rank 0
distributed.nanny - WARNING - Restarting worker
